%YAML 1.1
%TAG !u! tag:unity3d.com,2011:
--- !u!1 &2333592438029612670
GameObject:
  m_ObjectHideFlags: 0
  m_CorrespondingSourceObject: {fileID: 0}
  m_PrefabInstance: {fileID: 0}
  m_PrefabAsset: {fileID: 0}
  serializedVersion: 6
  m_Component:
  - component: {fileID: 1406532504818060514}
  - component: {fileID: 6791834496190678477}
  m_Layer: 31
  m_Name: Forest Pallette
  m_TagString: Untagged
  m_Icon: {fileID: 0}
  m_NavMeshLayer: 0
  m_StaticEditorFlags: 0
  m_IsActive: 1
--- !u!4 &1406532504818060514
Transform:
  m_ObjectHideFlags: 0
  m_CorrespondingSourceObject: {fileID: 0}
  m_PrefabInstance: {fileID: 0}
  m_PrefabAsset: {fileID: 0}
  m_GameObject: {fileID: 2333592438029612670}
  m_LocalRotation: {x: 0, y: 0, z: 0, w: 1}
  m_LocalPosition: {x: 0, y: 0, z: 0}
  m_LocalScale: {x: 1, y: 1, z: 1}
  m_Children:
  - {fileID: 1652504894673944975}
  m_Father: {fileID: 0}
  m_RootOrder: 0
  m_LocalEulerAnglesHint: {x: 0, y: 0, z: 0}
--- !u!156049354 &6791834496190678477
Grid:
  m_ObjectHideFlags: 0
  m_CorrespondingSourceObject: {fileID: 0}
  m_PrefabInstance: {fileID: 0}
  m_PrefabAsset: {fileID: 0}
  m_GameObject: {fileID: 2333592438029612670}
  m_Enabled: 1
  m_CellSize: {x: 1, y: 1, z: 0}
  m_CellGap: {x: 0, y: 0, z: 0}
  m_CellLayout: 0
  m_CellSwizzle: 0
--- !u!1 &7854529704784669688
GameObject:
  m_ObjectHideFlags: 0
  m_CorrespondingSourceObject: {fileID: 0}
  m_PrefabInstance: {fileID: 0}
  m_PrefabAsset: {fileID: 0}
  serializedVersion: 6
  m_Component:
  - component: {fileID: 1652504894673944975}
  - component: {fileID: 3378110836416525735}
  - component: {fileID: 111926666564199410}
  m_Layer: 31
  m_Name: Layer1
  m_TagString: Untagged
  m_Icon: {fileID: 0}
  m_NavMeshLayer: 0
  m_StaticEditorFlags: 0
  m_IsActive: 1
--- !u!4 &1652504894673944975
Transform:
  m_ObjectHideFlags: 0
  m_CorrespondingSourceObject: {fileID: 0}
  m_PrefabInstance: {fileID: 0}
  m_PrefabAsset: {fileID: 0}
  m_GameObject: {fileID: 7854529704784669688}
  m_LocalRotation: {x: -0, y: -0, z: -0, w: 1}
  m_LocalPosition: {x: 0, y: 0, z: 0}
  m_LocalScale: {x: 1, y: 1, z: 1}
  m_Children: []
  m_Father: {fileID: 1406532504818060514}
  m_RootOrder: 0
  m_LocalEulerAnglesHint: {x: 0, y: 0, z: 0}
--- !u!1839735485 &3378110836416525735
Tilemap:
  m_ObjectHideFlags: 0
  m_CorrespondingSourceObject: {fileID: 0}
  m_PrefabInstance: {fileID: 0}
  m_PrefabAsset: {fileID: 0}
  m_GameObject: {fileID: 7854529704784669688}
  m_Enabled: 1
  m_Tiles:
  - first: {x: -61, y: 14, z: 0}
    second:
      serializedVersion: 2
      m_TileIndex: 71
      m_TileSpriteIndex: 71
      m_TileMatrixIndex: 0
      m_TileColorIndex: 145
      m_TileObjectToInstantiateIndex: 65535
      m_AllTileFlags: 1073741825
  - first: {x: -60, y: 14, z: 0}
    second:
      serializedVersion: 2
      m_TileIndex: 70
      m_TileSpriteIndex: 70
      m_TileMatrixIndex: 0
      m_TileColorIndex: 145
      m_TileObjectToInstantiateIndex: 65535
      m_AllTileFlags: 1073741825
  - first: {x: -58, y: 14, z: 0}
    second:
      serializedVersion: 2
      m_TileIndex: 69
      m_TileSpriteIndex: 69
      m_TileMatrixIndex: 0
      m_TileColorIndex: 145
      m_TileObjectToInstantiateIndex: 65535
      m_AllTileFlags: 1073741825
  - first: {x: -57, y: 14, z: 0}
    second:
      serializedVersion: 2
      m_TileIndex: 68
      m_TileSpriteIndex: 68
      m_TileMatrixIndex: 0
      m_TileColorIndex: 145
      m_TileObjectToInstantiateIndex: 65535
      m_AllTileFlags: 1073741825
  - first: {x: -56, y: 14, z: 0}
    second:
      serializedVersion: 2
      m_TileIndex: 67
      m_TileSpriteIndex: 67
      m_TileMatrixIndex: 0
      m_TileColorIndex: 145
      m_TileObjectToInstantiateIndex: 65535
      m_AllTileFlags: 1073741825
  - first: {x: -61, y: 15, z: 0}
    second:
      serializedVersion: 2
      m_TileIndex: 77
      m_TileSpriteIndex: 77
      m_TileMatrixIndex: 0
      m_TileColorIndex: 145
      m_TileObjectToInstantiateIndex: 65535
      m_AllTileFlags: 1073741825
  - first: {x: -60, y: 15, z: 0}
    second:
      serializedVersion: 2
      m_TileIndex: 76
      m_TileSpriteIndex: 76
      m_TileMatrixIndex: 0
      m_TileColorIndex: 145
      m_TileObjectToInstantiateIndex: 65535
      m_AllTileFlags: 1073741825
  - first: {x: -59, y: 15, z: 0}
    second:
      serializedVersion: 2
      m_TileIndex: 75
      m_TileSpriteIndex: 75
      m_TileMatrixIndex: 0
      m_TileColorIndex: 145
      m_TileObjectToInstantiateIndex: 65535
      m_AllTileFlags: 1073741825
  - first: {x: -58, y: 15, z: 0}
    second:
      serializedVersion: 2
      m_TileIndex: 74
      m_TileSpriteIndex: 74
      m_TileMatrixIndex: 0
      m_TileColorIndex: 145
      m_TileObjectToInstantiateIndex: 65535
      m_AllTileFlags: 1073741825
  - first: {x: -57, y: 15, z: 0}
    second:
      serializedVersion: 2
      m_TileIndex: 73
      m_TileSpriteIndex: 73
      m_TileMatrixIndex: 0
      m_TileColorIndex: 145
      m_TileObjectToInstantiateIndex: 65535
      m_AllTileFlags: 1073741825
  - first: {x: -56, y: 15, z: 0}
    second:
      serializedVersion: 2
      m_TileIndex: 72
      m_TileSpriteIndex: 72
      m_TileMatrixIndex: 0
      m_TileColorIndex: 145
      m_TileObjectToInstantiateIndex: 65535
      m_AllTileFlags: 1073741825
  - first: {x: -61, y: 16, z: 0}
    second:
      serializedVersion: 2
      m_TileIndex: 83
      m_TileSpriteIndex: 83
      m_TileMatrixIndex: 0
      m_TileColorIndex: 145
      m_TileObjectToInstantiateIndex: 65535
      m_AllTileFlags: 1073741825
  - first: {x: -60, y: 16, z: 0}
    second:
      serializedVersion: 2
      m_TileIndex: 82
      m_TileSpriteIndex: 82
      m_TileMatrixIndex: 0
      m_TileColorIndex: 145
      m_TileObjectToInstantiateIndex: 65535
      m_AllTileFlags: 1073741825
  - first: {x: -59, y: 16, z: 0}
    second:
      serializedVersion: 2
      m_TileIndex: 81
      m_TileSpriteIndex: 81
      m_TileMatrixIndex: 0
      m_TileColorIndex: 145
      m_TileObjectToInstantiateIndex: 65535
      m_AllTileFlags: 1073741825
  - first: {x: -58, y: 16, z: 0}
    second:
      serializedVersion: 2
      m_TileIndex: 80
      m_TileSpriteIndex: 80
      m_TileMatrixIndex: 0
      m_TileColorIndex: 145
      m_TileObjectToInstantiateIndex: 65535
      m_AllTileFlags: 1073741825
  - first: {x: -57, y: 16, z: 0}
    second:
      serializedVersion: 2
      m_TileIndex: 79
      m_TileSpriteIndex: 79
      m_TileMatrixIndex: 0
      m_TileColorIndex: 145
      m_TileObjectToInstantiateIndex: 65535
      m_AllTileFlags: 1073741825
  - first: {x: -56, y: 16, z: 0}
    second:
      serializedVersion: 2
      m_TileIndex: 78
      m_TileSpriteIndex: 78
      m_TileMatrixIndex: 0
      m_TileColorIndex: 145
      m_TileObjectToInstantiateIndex: 65535
      m_AllTileFlags: 1073741825
  - first: {x: -61, y: 17, z: 0}
    second:
      serializedVersion: 2
      m_TileIndex: 86
      m_TileSpriteIndex: 86
      m_TileMatrixIndex: 0
      m_TileColorIndex: 145
      m_TileObjectToInstantiateIndex: 65535
      m_AllTileFlags: 1073741825
  - first: {x: -60, y: 17, z: 0}
    second:
      serializedVersion: 2
      m_TileIndex: 85
      m_TileSpriteIndex: 85
      m_TileMatrixIndex: 0
      m_TileColorIndex: 145
      m_TileObjectToInstantiateIndex: 65535
      m_AllTileFlags: 1073741825
  - first: {x: -59, y: 17, z: 0}
    second:
      serializedVersion: 2
      m_TileIndex: 84
      m_TileSpriteIndex: 84
      m_TileMatrixIndex: 0
      m_TileColorIndex: 145
      m_TileObjectToInstantiateIndex: 65535
      m_AllTileFlags: 1073741825
  - first: {x: -61, y: 18, z: 0}
    second:
      serializedVersion: 2
      m_TileIndex: 89
      m_TileSpriteIndex: 89
      m_TileMatrixIndex: 0
      m_TileColorIndex: 145
      m_TileObjectToInstantiateIndex: 65535
      m_AllTileFlags: 1073741825
  - first: {x: -60, y: 18, z: 0}
    second:
      serializedVersion: 2
      m_TileIndex: 88
      m_TileSpriteIndex: 88
      m_TileMatrixIndex: 0
      m_TileColorIndex: 145
      m_TileObjectToInstantiateIndex: 65535
      m_AllTileFlags: 1073741825
  - first: {x: -59, y: 18, z: 0}
    second:
      serializedVersion: 2
      m_TileIndex: 87
      m_TileSpriteIndex: 87
      m_TileMatrixIndex: 0
      m_TileColorIndex: 145
      m_TileObjectToInstantiateIndex: 65535
      m_AllTileFlags: 1073741825
  - first: {x: -61, y: 19, z: 0}
    second:
      serializedVersion: 2
      m_TileIndex: 93
      m_TileSpriteIndex: 93
      m_TileMatrixIndex: 0
      m_TileColorIndex: 145
      m_TileObjectToInstantiateIndex: 65535
      m_AllTileFlags: 1073741825
  - first: {x: -60, y: 19, z: 0}
    second:
      serializedVersion: 2
      m_TileIndex: 92
      m_TileSpriteIndex: 92
      m_TileMatrixIndex: 0
      m_TileColorIndex: 145
      m_TileObjectToInstantiateIndex: 65535
      m_AllTileFlags: 1073741825
  - first: {x: -59, y: 19, z: 0}
    second:
      serializedVersion: 2
      m_TileIndex: 91
      m_TileSpriteIndex: 91
      m_TileMatrixIndex: 0
      m_TileColorIndex: 145
      m_TileObjectToInstantiateIndex: 65535
      m_AllTileFlags: 1073741825
  - first: {x: -58, y: 19, z: 0}
    second:
      serializedVersion: 2
      m_TileIndex: 90
      m_TileSpriteIndex: 90
      m_TileMatrixIndex: 0
      m_TileColorIndex: 145
      m_TileObjectToInstantiateIndex: 65535
      m_AllTileFlags: 1073741825
  - first: {x: -39, y: 19, z: 0}
    second:
      serializedVersion: 2
      m_TileIndex: 56
      m_TileSpriteIndex: 56
      m_TileMatrixIndex: 0
      m_TileColorIndex: 145
      m_TileObjectToInstantiateIndex: 65535
      m_AllTileFlags: 1073741825
  - first: {x: -38, y: 19, z: 0}
    second:
      serializedVersion: 2
      m_TileIndex: 55
      m_TileSpriteIndex: 55
      m_TileMatrixIndex: 0
      m_TileColorIndex: 145
      m_TileObjectToInstantiateIndex: 65535
      m_AllTileFlags: 1073741825
  - first: {x: -37, y: 19, z: 0}
    second:
      serializedVersion: 2
      m_TileIndex: 54
      m_TileSpriteIndex: 54
      m_TileMatrixIndex: 0
      m_TileColorIndex: 145
      m_TileObjectToInstantiateIndex: 65535
      m_AllTileFlags: 1073741825
  - first: {x: -36, y: 19, z: 0}
    second:
      serializedVersion: 2
      m_TileIndex: 53
      m_TileSpriteIndex: 53
      m_TileMatrixIndex: 0
      m_TileColorIndex: 145
      m_TileObjectToInstantiateIndex: 65535
      m_AllTileFlags: 1073741825
  - first: {x: -35, y: 19, z: 0}
    second:
      serializedVersion: 2
      m_TileIndex: 52
      m_TileSpriteIndex: 52
      m_TileMatrixIndex: 0
      m_TileColorIndex: 145
      m_TileObjectToInstantiateIndex: 65535
      m_AllTileFlags: 1073741825
  - first: {x: -61, y: 20, z: 0}
    second:
      serializedVersion: 2
      m_TileIndex: 101
      m_TileSpriteIndex: 101
      m_TileMatrixIndex: 0
      m_TileColorIndex: 145
      m_TileObjectToInstantiateIndex: 65535
      m_AllTileFlags: 1073741825
  - first: {x: -60, y: 20, z: 0}
    second:
      serializedVersion: 2
      m_TileIndex: 100
      m_TileSpriteIndex: 100
      m_TileMatrixIndex: 0
      m_TileColorIndex: 145
      m_TileObjectToInstantiateIndex: 65535
      m_AllTileFlags: 1073741825
  - first: {x: -59, y: 20, z: 0}
    second:
      serializedVersion: 2
      m_TileIndex: 99
      m_TileSpriteIndex: 99
      m_TileMatrixIndex: 0
      m_TileColorIndex: 145
      m_TileObjectToInstantiateIndex: 65535
      m_AllTileFlags: 1073741825
  - first: {x: -58, y: 20, z: 0}
    second:
      serializedVersion: 2
      m_TileIndex: 98
      m_TileSpriteIndex: 98
      m_TileMatrixIndex: 0
      m_TileColorIndex: 145
      m_TileObjectToInstantiateIndex: 65535
      m_AllTileFlags: 1073741825
  - first: {x: -57, y: 20, z: 0}
    second:
      serializedVersion: 2
      m_TileIndex: 97
      m_TileSpriteIndex: 97
      m_TileMatrixIndex: 0
      m_TileColorIndex: 145
      m_TileObjectToInstantiateIndex: 65535
      m_AllTileFlags: 1073741825
  - first: {x: -56, y: 20, z: 0}
    second:
      serializedVersion: 2
      m_TileIndex: 96
      m_TileSpriteIndex: 96
      m_TileMatrixIndex: 0
      m_TileColorIndex: 145
      m_TileObjectToInstantiateIndex: 65535
      m_AllTileFlags: 1073741825
  - first: {x: -55, y: 20, z: 0}
    second:
      serializedVersion: 2
      m_TileIndex: 95
      m_TileSpriteIndex: 95
      m_TileMatrixIndex: 0
      m_TileColorIndex: 145
      m_TileObjectToInstantiateIndex: 65535
      m_AllTileFlags: 1073741825
  - first: {x: -54, y: 20, z: 0}
    second:
      serializedVersion: 2
      m_TileIndex: 94
      m_TileSpriteIndex: 94
      m_TileMatrixIndex: 0
      m_TileColorIndex: 145
      m_TileObjectToInstantiateIndex: 65535
      m_AllTileFlags: 1073741825
  - first: {x: -39, y: 20, z: 0}
    second:
      serializedVersion: 2
      m_TileIndex: 61
      m_TileSpriteIndex: 61
      m_TileMatrixIndex: 0
      m_TileColorIndex: 145
      m_TileObjectToInstantiateIndex: 65535
      m_AllTileFlags: 1073741825
  - first: {x: -38, y: 20, z: 0}
    second:
      serializedVersion: 2
      m_TileIndex: 60
      m_TileSpriteIndex: 60
      m_TileMatrixIndex: 0
      m_TileColorIndex: 145
      m_TileObjectToInstantiateIndex: 65535
      m_AllTileFlags: 1073741825
  - first: {x: -37, y: 20, z: 0}
    second:
      serializedVersion: 2
      m_TileIndex: 59
      m_TileSpriteIndex: 59
      m_TileMatrixIndex: 0
      m_TileColorIndex: 145
      m_TileObjectToInstantiateIndex: 65535
      m_AllTileFlags: 1073741825
  - first: {x: -36, y: 20, z: 0}
    second:
      serializedVersion: 2
      m_TileIndex: 58
      m_TileSpriteIndex: 58
      m_TileMatrixIndex: 0
      m_TileColorIndex: 145
      m_TileObjectToInstantiateIndex: 65535
      m_AllTileFlags: 1073741825
  - first: {x: -35, y: 20, z: 0}
    second:
      serializedVersion: 2
      m_TileIndex: 57
      m_TileSpriteIndex: 57
      m_TileMatrixIndex: 0
      m_TileColorIndex: 145
      m_TileObjectToInstantiateIndex: 65535
      m_AllTileFlags: 1073741825
  - first: {x: -61, y: 21, z: 0}
    second:
      serializedVersion: 2
      m_TileIndex: 111
      m_TileSpriteIndex: 111
      m_TileMatrixIndex: 0
      m_TileColorIndex: 145
      m_TileObjectToInstantiateIndex: 65535
      m_AllTileFlags: 1073741825
  - first: {x: -60, y: 21, z: 0}
    second:
      serializedVersion: 2
      m_TileIndex: 110
      m_TileSpriteIndex: 110
      m_TileMatrixIndex: 0
      m_TileColorIndex: 145
      m_TileObjectToInstantiateIndex: 65535
      m_AllTileFlags: 1073741825
  - first: {x: -59, y: 21, z: 0}
    second:
      serializedVersion: 2
      m_TileIndex: 109
      m_TileSpriteIndex: 109
      m_TileMatrixIndex: 0
      m_TileColorIndex: 145
      m_TileObjectToInstantiateIndex: 65535
      m_AllTileFlags: 1073741825
  - first: {x: -58, y: 21, z: 0}
    second:
      serializedVersion: 2
      m_TileIndex: 108
      m_TileSpriteIndex: 108
      m_TileMatrixIndex: 0
      m_TileColorIndex: 145
      m_TileObjectToInstantiateIndex: 65535
      m_AllTileFlags: 1073741825
  - first: {x: -57, y: 21, z: 0}
    second:
      serializedVersion: 2
      m_TileIndex: 107
      m_TileSpriteIndex: 107
      m_TileMatrixIndex: 0
      m_TileColorIndex: 145
      m_TileObjectToInstantiateIndex: 65535
      m_AllTileFlags: 1073741825
  - first: {x: -56, y: 21, z: 0}
    second:
      serializedVersion: 2
      m_TileIndex: 106
      m_TileSpriteIndex: 106
      m_TileMatrixIndex: 0
      m_TileColorIndex: 145
      m_TileObjectToInstantiateIndex: 65535
      m_AllTileFlags: 1073741825
  - first: {x: -55, y: 21, z: 0}
    second:
      serializedVersion: 2
      m_TileIndex: 105
      m_TileSpriteIndex: 105
      m_TileMatrixIndex: 0
      m_TileColorIndex: 145
      m_TileObjectToInstantiateIndex: 65535
      m_AllTileFlags: 1073741825
  - first: {x: -54, y: 21, z: 0}
    second:
      serializedVersion: 2
      m_TileIndex: 104
      m_TileSpriteIndex: 104
      m_TileMatrixIndex: 0
      m_TileColorIndex: 145
      m_TileObjectToInstantiateIndex: 65535
      m_AllTileFlags: 1073741825
  - first: {x: -51, y: 21, z: 0}
    second:
      serializedVersion: 2
      m_TileIndex: 103
      m_TileSpriteIndex: 103
      m_TileMatrixIndex: 0
      m_TileColorIndex: 145
      m_TileObjectToInstantiateIndex: 65535
      m_AllTileFlags: 1073741825
  - first: {x: -50, y: 21, z: 0}
    second:
      serializedVersion: 2
      m_TileIndex: 102
      m_TileSpriteIndex: 102
      m_TileMatrixIndex: 0
      m_TileColorIndex: 145
      m_TileObjectToInstantiateIndex: 65535
      m_AllTileFlags: 1073741825
  - first: {x: -39, y: 21, z: 0}
    second:
      serializedVersion: 2
      m_TileIndex: 66
      m_TileSpriteIndex: 66
      m_TileMatrixIndex: 0
      m_TileColorIndex: 145
      m_TileObjectToInstantiateIndex: 65535
      m_AllTileFlags: 1073741825
  - first: {x: -38, y: 21, z: 0}
    second:
      serializedVersion: 2
      m_TileIndex: 65
      m_TileSpriteIndex: 65
      m_TileMatrixIndex: 0
      m_TileColorIndex: 145
      m_TileObjectToInstantiateIndex: 65535
      m_AllTileFlags: 1073741825
  - first: {x: -37, y: 21, z: 0}
    second:
      serializedVersion: 2
      m_TileIndex: 64
      m_TileSpriteIndex: 64
      m_TileMatrixIndex: 0
      m_TileColorIndex: 145
      m_TileObjectToInstantiateIndex: 65535
      m_AllTileFlags: 1073741825
  - first: {x: -36, y: 21, z: 0}
    second:
      serializedVersion: 2
      m_TileIndex: 63
      m_TileSpriteIndex: 63
      m_TileMatrixIndex: 0
      m_TileColorIndex: 145
      m_TileObjectToInstantiateIndex: 65535
      m_AllTileFlags: 1073741825
  - first: {x: -35, y: 21, z: 0}
    second:
      serializedVersion: 2
      m_TileIndex: 62
      m_TileSpriteIndex: 62
      m_TileMatrixIndex: 0
      m_TileColorIndex: 145
      m_TileObjectToInstantiateIndex: 65535
      m_AllTileFlags: 1073741825
  - first: {x: -61, y: 22, z: 0}
    second:
      serializedVersion: 2
      m_TileIndex: 123
      m_TileSpriteIndex: 123
      m_TileMatrixIndex: 0
      m_TileColorIndex: 145
      m_TileObjectToInstantiateIndex: 65535
      m_AllTileFlags: 1073741825
  - first: {x: -60, y: 22, z: 0}
    second:
      serializedVersion: 2
      m_TileIndex: 122
      m_TileSpriteIndex: 122
      m_TileMatrixIndex: 0
      m_TileColorIndex: 145
      m_TileObjectToInstantiateIndex: 65535
      m_AllTileFlags: 1073741825
  - first: {x: -59, y: 22, z: 0}
    second:
      serializedVersion: 2
      m_TileIndex: 121
      m_TileSpriteIndex: 121
      m_TileMatrixIndex: 0
      m_TileColorIndex: 145
      m_TileObjectToInstantiateIndex: 65535
      m_AllTileFlags: 1073741825
  - first: {x: -58, y: 22, z: 0}
    second:
      serializedVersion: 2
      m_TileIndex: 120
      m_TileSpriteIndex: 120
      m_TileMatrixIndex: 0
      m_TileColorIndex: 145
      m_TileObjectToInstantiateIndex: 65535
      m_AllTileFlags: 1073741825
  - first: {x: -57, y: 22, z: 0}
    second:
      serializedVersion: 2
      m_TileIndex: 119
      m_TileSpriteIndex: 119
      m_TileMatrixIndex: 0
      m_TileColorIndex: 145
      m_TileObjectToInstantiateIndex: 65535
      m_AllTileFlags: 1073741825
  - first: {x: -56, y: 22, z: 0}
    second:
      serializedVersion: 2
      m_TileIndex: 118
      m_TileSpriteIndex: 118
      m_TileMatrixIndex: 0
      m_TileColorIndex: 145
      m_TileObjectToInstantiateIndex: 65535
      m_AllTileFlags: 1073741825
  - first: {x: -55, y: 22, z: 0}
    second:
      serializedVersion: 2
      m_TileIndex: 117
      m_TileSpriteIndex: 117
      m_TileMatrixIndex: 0
      m_TileColorIndex: 145
      m_TileObjectToInstantiateIndex: 65535
      m_AllTileFlags: 1073741825
  - first: {x: -54, y: 22, z: 0}
    second:
      serializedVersion: 2
      m_TileIndex: 116
      m_TileSpriteIndex: 116
      m_TileMatrixIndex: 0
      m_TileColorIndex: 145
      m_TileObjectToInstantiateIndex: 65535
      m_AllTileFlags: 1073741825
  - first: {x: -53, y: 22, z: 0}
    second:
      serializedVersion: 2
      m_TileIndex: 115
      m_TileSpriteIndex: 115
      m_TileMatrixIndex: 0
      m_TileColorIndex: 145
      m_TileObjectToInstantiateIndex: 65535
      m_AllTileFlags: 1073741825
  - first: {x: -52, y: 22, z: 0}
    second:
      serializedVersion: 2
      m_TileIndex: 114
      m_TileSpriteIndex: 114
      m_TileMatrixIndex: 0
      m_TileColorIndex: 145
      m_TileObjectToInstantiateIndex: 65535
      m_AllTileFlags: 1073741825
  - first: {x: -51, y: 22, z: 0}
    second:
      serializedVersion: 2
      m_TileIndex: 113
      m_TileSpriteIndex: 113
      m_TileMatrixIndex: 0
      m_TileColorIndex: 145
      m_TileObjectToInstantiateIndex: 65535
      m_AllTileFlags: 1073741825
  - first: {x: -50, y: 22, z: 0}
    second:
      serializedVersion: 2
      m_TileIndex: 112
      m_TileSpriteIndex: 112
      m_TileMatrixIndex: 0
      m_TileColorIndex: 145
      m_TileObjectToInstantiateIndex: 65535
      m_AllTileFlags: 1073741825
  - first: {x: -61, y: 23, z: 0}
    second:
      serializedVersion: 2
      m_TileIndex: 135
      m_TileSpriteIndex: 135
      m_TileMatrixIndex: 0
      m_TileColorIndex: 145
      m_TileObjectToInstantiateIndex: 65535
      m_AllTileFlags: 1073741825
  - first: {x: -60, y: 23, z: 0}
    second:
      serializedVersion: 2
      m_TileIndex: 134
      m_TileSpriteIndex: 134
      m_TileMatrixIndex: 0
      m_TileColorIndex: 145
      m_TileObjectToInstantiateIndex: 65535
      m_AllTileFlags: 1073741825
  - first: {x: -58, y: 23, z: 0}
    second:
      serializedVersion: 2
      m_TileIndex: 133
      m_TileSpriteIndex: 133
      m_TileMatrixIndex: 0
      m_TileColorIndex: 145
      m_TileObjectToInstantiateIndex: 65535
      m_AllTileFlags: 1073741825
  - first: {x: -57, y: 23, z: 0}
    second:
      serializedVersion: 2
      m_TileIndex: 132
      m_TileSpriteIndex: 132
      m_TileMatrixIndex: 0
      m_TileColorIndex: 145
      m_TileObjectToInstantiateIndex: 65535
      m_AllTileFlags: 1073741825
  - first: {x: -56, y: 23, z: 0}
    second:
      serializedVersion: 2
      m_TileIndex: 131
      m_TileSpriteIndex: 131
      m_TileMatrixIndex: 0
      m_TileColorIndex: 145
      m_TileObjectToInstantiateIndex: 65535
      m_AllTileFlags: 1073741825
  - first: {x: -55, y: 23, z: 0}
    second:
      serializedVersion: 2
      m_TileIndex: 130
      m_TileSpriteIndex: 130
      m_TileMatrixIndex: 0
      m_TileColorIndex: 145
      m_TileObjectToInstantiateIndex: 65535
      m_AllTileFlags: 1073741825
  - first: {x: -54, y: 23, z: 0}
    second:
      serializedVersion: 2
      m_TileIndex: 129
      m_TileSpriteIndex: 129
      m_TileMatrixIndex: 0
      m_TileColorIndex: 145
      m_TileObjectToInstantiateIndex: 65535
      m_AllTileFlags: 1073741825
  - first: {x: -53, y: 23, z: 0}
    second:
      serializedVersion: 2
      m_TileIndex: 128
      m_TileSpriteIndex: 128
      m_TileMatrixIndex: 0
      m_TileColorIndex: 145
      m_TileObjectToInstantiateIndex: 65535
      m_AllTileFlags: 1073741825
  - first: {x: -52, y: 23, z: 0}
    second:
      serializedVersion: 2
      m_TileIndex: 127
      m_TileSpriteIndex: 127
      m_TileMatrixIndex: 0
      m_TileColorIndex: 145
      m_TileObjectToInstantiateIndex: 65535
      m_AllTileFlags: 1073741825
  - first: {x: -51, y: 23, z: 0}
    second:
      serializedVersion: 2
      m_TileIndex: 126
      m_TileSpriteIndex: 126
      m_TileMatrixIndex: 0
      m_TileColorIndex: 145
      m_TileObjectToInstantiateIndex: 65535
      m_AllTileFlags: 1073741825
  - first: {x: -50, y: 23, z: 0}
    second:
      serializedVersion: 2
      m_TileIndex: 125
      m_TileSpriteIndex: 125
      m_TileMatrixIndex: 0
      m_TileColorIndex: 145
      m_TileObjectToInstantiateIndex: 65535
      m_AllTileFlags: 1073741825
  - first: {x: -49, y: 23, z: 0}
    second:
      serializedVersion: 2
      m_TileIndex: 124
      m_TileSpriteIndex: 124
      m_TileMatrixIndex: 0
      m_TileColorIndex: 145
      m_TileObjectToInstantiateIndex: 65535
      m_AllTileFlags: 1073741825
  - first: {x: -61, y: 24, z: 0}
    second:
      serializedVersion: 2
      m_TileIndex: 148
      m_TileSpriteIndex: 148
      m_TileMatrixIndex: 0
      m_TileColorIndex: 145
      m_TileObjectToInstantiateIndex: 65535
      m_AllTileFlags: 1073741825
  - first: {x: -60, y: 24, z: 0}
    second:
      serializedVersion: 2
      m_TileIndex: 147
      m_TileSpriteIndex: 147
      m_TileMatrixIndex: 0
      m_TileColorIndex: 145
      m_TileObjectToInstantiateIndex: 65535
      m_AllTileFlags: 1073741825
  - first: {x: -59, y: 24, z: 0}
    second:
      serializedVersion: 2
      m_TileIndex: 146
      m_TileSpriteIndex: 146
      m_TileMatrixIndex: 0
      m_TileColorIndex: 145
      m_TileObjectToInstantiateIndex: 65535
      m_AllTileFlags: 1073741825
  - first: {x: -58, y: 24, z: 0}
    second:
      serializedVersion: 2
      m_TileIndex: 145
      m_TileSpriteIndex: 145
      m_TileMatrixIndex: 0
      m_TileColorIndex: 145
      m_TileObjectToInstantiateIndex: 65535
      m_AllTileFlags: 1073741825
  - first: {x: -57, y: 24, z: 0}
    second:
      serializedVersion: 2
      m_TileIndex: 144
      m_TileSpriteIndex: 144
      m_TileMatrixIndex: 0
      m_TileColorIndex: 145
      m_TileObjectToInstantiateIndex: 65535
      m_AllTileFlags: 1073741825
  - first: {x: -56, y: 24, z: 0}
    second:
      serializedVersion: 2
      m_TileIndex: 143
      m_TileSpriteIndex: 143
      m_TileMatrixIndex: 0
      m_TileColorIndex: 145
      m_TileObjectToInstantiateIndex: 65535
      m_AllTileFlags: 1073741825
  - first: {x: -55, y: 24, z: 0}
    second:
      serializedVersion: 2
      m_TileIndex: 142
      m_TileSpriteIndex: 142
      m_TileMatrixIndex: 0
      m_TileColorIndex: 145
      m_TileObjectToInstantiateIndex: 65535
      m_AllTileFlags: 1073741825
  - first: {x: -54, y: 24, z: 0}
    second:
      serializedVersion: 2
      m_TileIndex: 141
      m_TileSpriteIndex: 141
      m_TileMatrixIndex: 0
      m_TileColorIndex: 145
      m_TileObjectToInstantiateIndex: 65535
      m_AllTileFlags: 1073741825
  - first: {x: -53, y: 24, z: 0}
    second:
      serializedVersion: 2
      m_TileIndex: 140
      m_TileSpriteIndex: 140
      m_TileMatrixIndex: 0
      m_TileColorIndex: 145
      m_TileObjectToInstantiateIndex: 65535
      m_AllTileFlags: 1073741825
  - first: {x: -52, y: 24, z: 0}
    second:
      serializedVersion: 2
      m_TileIndex: 139
      m_TileSpriteIndex: 139
      m_TileMatrixIndex: 0
      m_TileColorIndex: 145
      m_TileObjectToInstantiateIndex: 65535
      m_AllTileFlags: 1073741825
  - first: {x: -51, y: 24, z: 0}
    second:
      serializedVersion: 2
      m_TileIndex: 138
      m_TileSpriteIndex: 138
      m_TileMatrixIndex: 0
      m_TileColorIndex: 145
      m_TileObjectToInstantiateIndex: 65535
      m_AllTileFlags: 1073741825
  - first: {x: -50, y: 24, z: 0}
    second:
      serializedVersion: 2
      m_TileIndex: 137
      m_TileSpriteIndex: 137
      m_TileMatrixIndex: 0
      m_TileColorIndex: 145
      m_TileObjectToInstantiateIndex: 65535
      m_AllTileFlags: 1073741825
  - first: {x: -49, y: 24, z: 0}
    second:
      serializedVersion: 2
      m_TileIndex: 136
      m_TileSpriteIndex: 136
      m_TileMatrixIndex: 0
      m_TileColorIndex: 145
      m_TileObjectToInstantiateIndex: 65535
      m_AllTileFlags: 1073741825
  - first: {x: -61, y: 25, z: 0}
    second:
      serializedVersion: 2
      m_TileIndex: 155
      m_TileSpriteIndex: 155
      m_TileMatrixIndex: 0
      m_TileColorIndex: 145
      m_TileObjectToInstantiateIndex: 65535
      m_AllTileFlags: 1073741825
  - first: {x: -60, y: 25, z: 0}
    second:
      serializedVersion: 2
      m_TileIndex: 154
      m_TileSpriteIndex: 154
      m_TileMatrixIndex: 0
      m_TileColorIndex: 145
      m_TileObjectToInstantiateIndex: 65535
      m_AllTileFlags: 1073741825
  - first: {x: -59, y: 25, z: 0}
    second:
      serializedVersion: 2
      m_TileIndex: 153
      m_TileSpriteIndex: 153
      m_TileMatrixIndex: 0
      m_TileColorIndex: 145
      m_TileObjectToInstantiateIndex: 65535
      m_AllTileFlags: 1073741825
  - first: {x: -58, y: 25, z: 0}
    second:
      serializedVersion: 2
      m_TileIndex: 152
      m_TileSpriteIndex: 152
      m_TileMatrixIndex: 0
      m_TileColorIndex: 145
      m_TileObjectToInstantiateIndex: 65535
      m_AllTileFlags: 1073741825
  - first: {x: -57, y: 25, z: 0}
    second:
      serializedVersion: 2
      m_TileIndex: 151
      m_TileSpriteIndex: 151
      m_TileMatrixIndex: 0
      m_TileColorIndex: 145
      m_TileObjectToInstantiateIndex: 65535
      m_AllTileFlags: 1073741825
  - first: {x: -53, y: 25, z: 0}
    second:
      serializedVersion: 2
      m_TileIndex: 150
      m_TileSpriteIndex: 150
      m_TileMatrixIndex: 0
      m_TileColorIndex: 145
      m_TileObjectToInstantiateIndex: 65535
      m_AllTileFlags: 1073741825
  - first: {x: -52, y: 25, z: 0}
    second:
      serializedVersion: 2
      m_TileIndex: 149
      m_TileSpriteIndex: 149
      m_TileMatrixIndex: 0
      m_TileColorIndex: 145
      m_TileObjectToInstantiateIndex: 65535
      m_AllTileFlags: 1073741825
  m_AnimatedTiles: {}
  m_TileAssetArray:
  - m_RefCount: 0
    m_Data: {fileID: 0}
  - m_RefCount: 0
    m_Data: {fileID: 0}
  - m_RefCount: 0
    m_Data: {fileID: 0}
  - m_RefCount: 0
    m_Data: {fileID: 0}
  - m_RefCount: 0
    m_Data: {fileID: 0}
  - m_RefCount: 0
    m_Data: {fileID: 0}
  - m_RefCount: 0
    m_Data: {fileID: 0}
  - m_RefCount: 0
    m_Data: {fileID: 0}
  - m_RefCount: 0
    m_Data: {fileID: 0}
  - m_RefCount: 0
    m_Data: {fileID: 0}
  - m_RefCount: 0
    m_Data: {fileID: 0}
  - m_RefCount: 0
    m_Data: {fileID: 0}
  - m_RefCount: 0
    m_Data: {fileID: 0}
  - m_RefCount: 0
    m_Data: {fileID: 0}
  - m_RefCount: 0
    m_Data: {fileID: 0}
  - m_RefCount: 0
    m_Data: {fileID: 0}
  - m_RefCount: 0
    m_Data: {fileID: 0}
  - m_RefCount: 0
    m_Data: {fileID: 0}
  - m_RefCount: 0
    m_Data: {fileID: 0}
  - m_RefCount: 0
    m_Data: {fileID: 0}
  - m_RefCount: 0
    m_Data: {fileID: 0}
  - m_RefCount: 0
    m_Data: {fileID: 0}
  - m_RefCount: 0
    m_Data: {fileID: 0}
  - m_RefCount: 0
    m_Data: {fileID: 0}
  - m_RefCount: 0
    m_Data: {fileID: 0}
  - m_RefCount: 0
    m_Data: {fileID: 0}
  - m_RefCount: 0
    m_Data: {fileID: 0}
  - m_RefCount: 0
    m_Data: {fileID: 0}
  - m_RefCount: 0
    m_Data: {fileID: 0}
  - m_RefCount: 0
    m_Data: {fileID: 0}
  - m_RefCount: 0
    m_Data: {fileID: 0}
  - m_RefCount: 0
    m_Data: {fileID: 0}
  - m_RefCount: 0
    m_Data: {fileID: 0}
  - m_RefCount: 0
    m_Data: {fileID: 0}
  - m_RefCount: 0
    m_Data: {fileID: 0}
  - m_RefCount: 0
    m_Data: {fileID: 0}
  - m_RefCount: 0
    m_Data: {fileID: 0}
  - m_RefCount: 0
    m_Data: {fileID: 0}
  - m_RefCount: 0
    m_Data: {fileID: 0}
  - m_RefCount: 0
    m_Data: {fileID: 0}
  - m_RefCount: 0
    m_Data: {fileID: 0}
  - m_RefCount: 0
    m_Data: {fileID: 0}
  - m_RefCount: 0
    m_Data: {fileID: 0}
  - m_RefCount: 0
    m_Data: {fileID: 0}
  - m_RefCount: 0
    m_Data: {fileID: 0}
  - m_RefCount: 0
    m_Data: {fileID: 0}
  - m_RefCount: 0
    m_Data: {fileID: 0}
  - m_RefCount: 0
    m_Data: {fileID: 0}
  - m_RefCount: 0
    m_Data: {fileID: 0}
  - m_RefCount: 0
    m_Data: {fileID: 0}
  - m_RefCount: 0
    m_Data: {fileID: 0}
  - m_RefCount: 0
    m_Data: {fileID: 0}
  - m_RefCount: 1
    m_Data: {fileID: 11400000, guid: 6d9b3caa6567d4c00befa26f38679c86, type: 2}
  - m_RefCount: 1
    m_Data: {fileID: 11400000, guid: 3f50ebcaf42d14f64b39c4dc2ba5437b, type: 2}
  - m_RefCount: 1
    m_Data: {fileID: 11400000, guid: 781f9df78db32409c88c22adce9cb8cd, type: 2}
  - m_RefCount: 1
    m_Data: {fileID: 11400000, guid: be82f5e21e69848ec8dc24b3205354d3, type: 2}
  - m_RefCount: 1
    m_Data: {fileID: 11400000, guid: 59aa185ff9955488c8c23dffaedc72aa, type: 2}
  - m_RefCount: 1
    m_Data: {fileID: 11400000, guid: 0c1f2e932359a4c538701a28165f4bab, type: 2}
  - m_RefCount: 1
    m_Data: {fileID: 11400000, guid: 9d2fd401e6b5b45df829cb832cb23df8, type: 2}
  - m_RefCount: 1
    m_Data: {fileID: 11400000, guid: 776a73b0a17524de0bab538cc99aea5c, type: 2}
  - m_RefCount: 1
    m_Data: {fileID: 11400000, guid: e49bd0be7d1d444e2bd4b73af41363dc, type: 2}
  - m_RefCount: 1
    m_Data: {fileID: 11400000, guid: 7ece83f152fca49e8bbc1c3065350bb3, type: 2}
  - m_RefCount: 1
    m_Data: {fileID: 11400000, guid: 7329f1cfff86b4d5eb2d500c0e802852, type: 2}
  - m_RefCount: 1
    m_Data: {fileID: 11400000, guid: d4850eed8a0fa4bcabf38380a8fb3409, type: 2}
  - m_RefCount: 1
    m_Data: {fileID: 11400000, guid: 536b4f16ea4834a7884790e5bffff4ed, type: 2}
  - m_RefCount: 1
    m_Data: {fileID: 11400000, guid: 979e0047ec2544600b69a58366dd7a2e, type: 2}
  - m_RefCount: 1
    m_Data: {fileID: 11400000, guid: cdeb2bdece09f4623a14af73ecc81869, type: 2}
  - m_RefCount: 1
    m_Data: {fileID: 11400000, guid: dfdca71a3b620433ca2edfe17e20fd63, type: 2}
  - m_RefCount: 1
    m_Data: {fileID: 11400000, guid: 6acdfa757734d4cafad6df77552fe0cf, type: 2}
  - m_RefCount: 1
    m_Data: {fileID: 11400000, guid: b2b03edf4b9624054a47dde598a0fdc6, type: 2}
  - m_RefCount: 1
    m_Data: {fileID: 11400000, guid: 3a655b174851648eabab293d0784540e, type: 2}
  - m_RefCount: 1
    m_Data: {fileID: 11400000, guid: 4bc501da67545426cb05370c741a0e69, type: 2}
  - m_RefCount: 1
    m_Data: {fileID: 11400000, guid: a027a7381157c4a9998ab0953ab337d0, type: 2}
  - m_RefCount: 1
    m_Data: {fileID: 11400000, guid: 26b2bee425b8a459189808f95c8a2dbd, type: 2}
  - m_RefCount: 1
    m_Data: {fileID: 11400000, guid: f8452a46682d84dcbb3b5d5fd7421af7, type: 2}
  - m_RefCount: 1
    m_Data: {fileID: 11400000, guid: af378912b0505485da54fc9984c6a182, type: 2}
  - m_RefCount: 1
    m_Data: {fileID: 11400000, guid: c6d320699264c4b5dbd9fe356b9e120e, type: 2}
  - m_RefCount: 1
    m_Data: {fileID: 11400000, guid: 5dc462ddf99894931a52bf271a9f3f24, type: 2}
  - m_RefCount: 1
    m_Data: {fileID: 11400000, guid: 35e47fbad4a384d138afccc692020ca6, type: 2}
  - m_RefCount: 1
    m_Data: {fileID: 11400000, guid: bd0d1dcee7377403b99eca1e9f63f18c, type: 2}
  - m_RefCount: 1
    m_Data: {fileID: 11400000, guid: 1a3bd6dbd27474f4685403fd10aba44b, type: 2}
  - m_RefCount: 1
    m_Data: {fileID: 11400000, guid: 6195d3ace61cb46d08b50190c51c8753, type: 2}
  - m_RefCount: 1
    m_Data: {fileID: 11400000, guid: df8814d7fa0904bf0a919cf21682e251, type: 2}
  - m_RefCount: 1
    m_Data: {fileID: 11400000, guid: dd86fc2bbe6be4f7286f596141c785ca, type: 2}
  - m_RefCount: 1
    m_Data: {fileID: 11400000, guid: d0e770a89a122406994e98c6909d0ee3, type: 2}
  - m_RefCount: 1
    m_Data: {fileID: 11400000, guid: 1503d50ed6c144455b585aa6db0e0e49, type: 2}
  - m_RefCount: 1
    m_Data: {fileID: 11400000, guid: 0c5195cd2d2014b7a8cd4e0dbfef0000, type: 2}
  - m_RefCount: 1
    m_Data: {fileID: 11400000, guid: 4b466efeb49fd4f61882e0eb5eae7e10, type: 2}
  - m_RefCount: 1
    m_Data: {fileID: 11400000, guid: 45d061338f61d427fb3a797d70b86364, type: 2}
  - m_RefCount: 1
    m_Data: {fileID: 11400000, guid: 06d845291ad1f4f02aff5d57c177365d, type: 2}
  - m_RefCount: 1
    m_Data: {fileID: 11400000, guid: ff704862d3a05400e8271fe7dfb252d6, type: 2}
  - m_RefCount: 1
    m_Data: {fileID: 11400000, guid: 9c71f470bbf1047538832ed12714d117, type: 2}
  - m_RefCount: 1
    m_Data: {fileID: 11400000, guid: a5e3dcf8e59404682bbcabbc1ee0165a, type: 2}
  - m_RefCount: 1
    m_Data: {fileID: 11400000, guid: c93af674c81ef46a285495fdc9dce4bf, type: 2}
  - m_RefCount: 1
    m_Data: {fileID: 11400000, guid: ba882e53a823743209f61675ff61664b, type: 2}
  - m_RefCount: 1
    m_Data: {fileID: 11400000, guid: 5fcbcc7d57b854ae88afd94935dd3112, type: 2}
  - m_RefCount: 1
    m_Data: {fileID: 11400000, guid: 76397099a36604b8eb02a4564c4debc3, type: 2}
  - m_RefCount: 1
    m_Data: {fileID: 11400000, guid: 5bcd44ab7b9ad414d82f4238a363e3f2, type: 2}
  - m_RefCount: 1
    m_Data: {fileID: 11400000, guid: 44da03e60d9634409b504446fe1efd43, type: 2}
  - m_RefCount: 1
    m_Data: {fileID: 11400000, guid: 8578ec6e0d3a84d35b075d1d1a280c7f, type: 2}
  - m_RefCount: 1
    m_Data: {fileID: 11400000, guid: 9655a46814b44401d946098e4388dc70, type: 2}
  - m_RefCount: 1
    m_Data: {fileID: 11400000, guid: 2aacb8d640d0848ee840555e17e69ba9, type: 2}
  - m_RefCount: 1
    m_Data: {fileID: 11400000, guid: 8c5dbbbf20ff346ca82dde5c88c33071, type: 2}
  - m_RefCount: 1
    m_Data: {fileID: 11400000, guid: a634f18d67a474e9cb15e5787743f8b3, type: 2}
  - m_RefCount: 1
    m_Data: {fileID: 11400000, guid: ac2cd8d90de924b888107c2d680705f0, type: 2}
  - m_RefCount: 1
    m_Data: {fileID: 11400000, guid: 99d7524f019024f5fab52328eac80b37, type: 2}
  - m_RefCount: 1
    m_Data: {fileID: 11400000, guid: 171b06bb0138744b98134e9985260d87, type: 2}
  - m_RefCount: 1
    m_Data: {fileID: 11400000, guid: 171d57fda88f14693ba378edde35f272, type: 2}
  - m_RefCount: 1
    m_Data: {fileID: 11400000, guid: a036feeaf35ee4640bc82bb42169dc84, type: 2}
  - m_RefCount: 1
    m_Data: {fileID: 11400000, guid: 14e328c63ac9f45d0861826748006ef0, type: 2}
  - m_RefCount: 1
    m_Data: {fileID: 11400000, guid: d7879e453bda949b6899bc3293c796b8, type: 2}
  - m_RefCount: 1
    m_Data: {fileID: 11400000, guid: bb7552e93c6f14c6092f887faa3fd3c8, type: 2}
  - m_RefCount: 1
    m_Data: {fileID: 11400000, guid: 7fc72689812f04b1a9b8af2360578a93, type: 2}
  - m_RefCount: 1
    m_Data: {fileID: 11400000, guid: 061e7e319e7b24ce3aada8e8b7df69b9, type: 2}
  - m_RefCount: 1
    m_Data: {fileID: 11400000, guid: 06922fe0118ff45b3826d55c8f72a18e, type: 2}
  - m_RefCount: 1
    m_Data: {fileID: 11400000, guid: ed090583051e2486b811705bca8ae907, type: 2}
  - m_RefCount: 1
    m_Data: {fileID: 11400000, guid: 802aa997987e5471f970477694407fba, type: 2}
  - m_RefCount: 1
    m_Data: {fileID: 11400000, guid: 97663ba0f071149b4a11b862009e5318, type: 2}
  - m_RefCount: 1
    m_Data: {fileID: 11400000, guid: 4ff958af915df42a1b88094de5bbc45b, type: 2}
  - m_RefCount: 1
    m_Data: {fileID: 11400000, guid: 4fce1c07a44604e4db75e3f505d5d39e, type: 2}
  - m_RefCount: 1
    m_Data: {fileID: 11400000, guid: ca29d567bc4a74a40a21c5180f38ec37, type: 2}
  - m_RefCount: 1
    m_Data: {fileID: 11400000, guid: e44c8aa238dd748d6b501b92a664715b, type: 2}
  - m_RefCount: 1
    m_Data: {fileID: 11400000, guid: 1cae26042ac1241e9933fdb2061d15f3, type: 2}
  - m_RefCount: 1
    m_Data: {fileID: 11400000, guid: 1201a728bdf4e4c9abbfc1a1eb660139, type: 2}
  - m_RefCount: 1
    m_Data: {fileID: 11400000, guid: 697a5f9032a3943d4a82e9e878e131be, type: 2}
  - m_RefCount: 1
    m_Data: {fileID: 11400000, guid: 3c8a7ff54fc0542f5be69b1729547011, type: 2}
  - m_RefCount: 1
    m_Data: {fileID: 11400000, guid: 56e0d692f567e4904bf8c15da113ca09, type: 2}
  - m_RefCount: 1
    m_Data: {fileID: 11400000, guid: 972fc48bbd9b34ad1b3c8238d593921c, type: 2}
  - m_RefCount: 1
    m_Data: {fileID: 11400000, guid: 5c8df9eb047054a0dbce2a2f0d1d840a, type: 2}
  - m_RefCount: 1
    m_Data: {fileID: 11400000, guid: 46db1b617936d424f86496603eaf91ec, type: 2}
  - m_RefCount: 1
    m_Data: {fileID: 11400000, guid: eba3f9b63291a4c8abec583c4efb7c01, type: 2}
  - m_RefCount: 1
    m_Data: {fileID: 11400000, guid: 858d95507cadd445c9e9f25600abd1f1, type: 2}
  - m_RefCount: 1
    m_Data: {fileID: 11400000, guid: 20531d0bf4a8241fc9be9168455f3259, type: 2}
  - m_RefCount: 1
    m_Data: {fileID: 11400000, guid: dcc8a0f54557c479891bc7a9d7d0c94f, type: 2}
  - m_RefCount: 1
    m_Data: {fileID: 11400000, guid: e57f1ef12015345e0adc2ff71845aa51, type: 2}
  - m_RefCount: 1
    m_Data: {fileID: 11400000, guid: f90afe35467da4d82a68edad83a6ef58, type: 2}
  - m_RefCount: 1
    m_Data: {fileID: 11400000, guid: ae8cc41a165b94d44af0b43764066517, type: 2}
  - m_RefCount: 1
    m_Data: {fileID: 11400000, guid: d9425415b22da4d7ba0bf048876aecd1, type: 2}
  - m_RefCount: 1
    m_Data: {fileID: 11400000, guid: fc18d6146ee9341ce86bc03d5623079e, type: 2}
  - m_RefCount: 1
    m_Data: {fileID: 11400000, guid: 291c4d527cba3492282f2506cea2e1b6, type: 2}
  - m_RefCount: 1
    m_Data: {fileID: 11400000, guid: a9a2bef6945ab419e88d001bc63d47d7, type: 2}
  - m_RefCount: 1
    m_Data: {fileID: 11400000, guid: 48dfaf1f5cc2345cfa46c7ad7dc22c7f, type: 2}
  - m_RefCount: 1
    m_Data: {fileID: 11400000, guid: 9aca7c3dbd7dd401487c6a7633b3a6a2, type: 2}
  - m_RefCount: 1
    m_Data: {fileID: 11400000, guid: 156aa97cf8db148f69829ee20e3ed2ce, type: 2}
  - m_RefCount: 1
    m_Data: {fileID: 11400000, guid: 04882c81692e34d03977d19f4b196a64, type: 2}
  - m_RefCount: 1
    m_Data: {fileID: 11400000, guid: 6e36f9e12f2c04f82866f2198eb6ee34, type: 2}
  - m_RefCount: 1
    m_Data: {fileID: 11400000, guid: 5f2d634f89ae5463c9342398b6cb709b, type: 2}
  - m_RefCount: 1
    m_Data: {fileID: 11400000, guid: 08b341bf712e149c9bfedfaba26455a9, type: 2}
  - m_RefCount: 1
    m_Data: {fileID: 11400000, guid: b1e29e931af614217ac9e23df06c21fd, type: 2}
  - m_RefCount: 1
    m_Data: {fileID: 11400000, guid: 72556c37e3e204b54b55236187cb4acf, type: 2}
  - m_RefCount: 1
    m_Data: {fileID: 11400000, guid: 53206a825e4a845bba181055a5b7d699, type: 2}
  - m_RefCount: 1
    m_Data: {fileID: 11400000, guid: f306e8ef41669404f81f48b3ea2b2dd4, type: 2}
  - m_RefCount: 1
    m_Data: {fileID: 11400000, guid: 0ab95275e024d4900ad86ca289bcbc45, type: 2}
  - m_RefCount: 1
    m_Data: {fileID: 11400000, guid: 2aa6cc5f3097c4b8ba187e0641dd6613, type: 2}
  - m_RefCount: 1
    m_Data: {fileID: 11400000, guid: cf36229c45bc34afbbc97f3f23f89402, type: 2}
  - m_RefCount: 1
    m_Data: {fileID: 11400000, guid: 9f5d1c96350a044138b1318de0f73b59, type: 2}
  m_TileSpriteArray:
  - m_RefCount: 0
    m_Data: {fileID: 0}
  - m_RefCount: 0
    m_Data: {fileID: 0}
  - m_RefCount: 0
    m_Data: {fileID: 0}
  - m_RefCount: 0
    m_Data: {fileID: 0}
  - m_RefCount: 0
    m_Data: {fileID: 0}
  - m_RefCount: 0
    m_Data: {fileID: 0}
  - m_RefCount: 0
    m_Data: {fileID: 0}
  - m_RefCount: 0
    m_Data: {fileID: 0}
  - m_RefCount: 0
    m_Data: {fileID: 0}
  - m_RefCount: 0
    m_Data: {fileID: 0}
  - m_RefCount: 0
    m_Data: {fileID: 0}
  - m_RefCount: 0
    m_Data: {fileID: 0}
  - m_RefCount: 0
    m_Data: {fileID: 0}
  - m_RefCount: 0
    m_Data: {fileID: 0}
  - m_RefCount: 0
    m_Data: {fileID: 0}
  - m_RefCount: 0
    m_Data: {fileID: 0}
  - m_RefCount: 0
    m_Data: {fileID: 0}
  - m_RefCount: 0
    m_Data: {fileID: 0}
  - m_RefCount: 0
    m_Data: {fileID: 0}
  - m_RefCount: 0
    m_Data: {fileID: 0}
  - m_RefCount: 0
    m_Data: {fileID: 0}
  - m_RefCount: 0
    m_Data: {fileID: 0}
  - m_RefCount: 0
    m_Data: {fileID: 0}
  - m_RefCount: 0
    m_Data: {fileID: 0}
  - m_RefCount: 0
    m_Data: {fileID: 0}
  - m_RefCount: 0
    m_Data: {fileID: 0}
  - m_RefCount: 0
    m_Data: {fileID: 0}
  - m_RefCount: 0
    m_Data: {fileID: 0}
  - m_RefCount: 0
    m_Data: {fileID: 0}
  - m_RefCount: 0
    m_Data: {fileID: 0}
  - m_RefCount: 0
    m_Data: {fileID: 0}
  - m_RefCount: 0
    m_Data: {fileID: 0}
  - m_RefCount: 0
    m_Data: {fileID: 0}
  - m_RefCount: 0
    m_Data: {fileID: 0}
  - m_RefCount: 0
    m_Data: {fileID: 0}
  - m_RefCount: 0
    m_Data: {fileID: 0}
  - m_RefCount: 0
    m_Data: {fileID: 0}
  - m_RefCount: 0
    m_Data: {fileID: 0}
  - m_RefCount: 0
    m_Data: {fileID: 0}
  - m_RefCount: 0
    m_Data: {fileID: 0}
  - m_RefCount: 0
    m_Data: {fileID: 0}
  - m_RefCount: 0
    m_Data: {fileID: 0}
  - m_RefCount: 0
    m_Data: {fileID: 0}
  - m_RefCount: 0
    m_Data: {fileID: 0}
  - m_RefCount: 0
    m_Data: {fileID: 0}
  - m_RefCount: 0
    m_Data: {fileID: 0}
  - m_RefCount: 0
    m_Data: {fileID: 0}
  - m_RefCount: 0
    m_Data: {fileID: 0}
  - m_RefCount: 0
    m_Data: {fileID: 0}
  - m_RefCount: 0
    m_Data: {fileID: 0}
  - m_RefCount: 0
    m_Data: {fileID: 0}
  - m_RefCount: 0
    m_Data: {fileID: 0}
  - m_RefCount: 1
    m_Data: {fileID: -202085914418650774, guid: cd41375233f6447a0b040cac5c1c8ca7,
      type: 3}
  - m_RefCount: 1
    m_Data: {fileID: -3976599979064961499, guid: cd41375233f6447a0b040cac5c1c8ca7,
      type: 3}
  - m_RefCount: 1
    m_Data: {fileID: -4976609703039680039, guid: cd41375233f6447a0b040cac5c1c8ca7,
      type: 3}
  - m_RefCount: 1
    m_Data: {fileID: 8397616433646962095, guid: cd41375233f6447a0b040cac5c1c8ca7,
      type: 3}
  - m_RefCount: 1
    m_Data: {fileID: -2453127829221564355, guid: cd41375233f6447a0b040cac5c1c8ca7,
      type: 3}
  - m_RefCount: 1
    m_Data: {fileID: 8958030485497831995, guid: cd41375233f6447a0b040cac5c1c8ca7,
      type: 3}
  - m_RefCount: 1
    m_Data: {fileID: 639013668283160789, guid: cd41375233f6447a0b040cac5c1c8ca7, type: 3}
  - m_RefCount: 1
    m_Data: {fileID: 1257515480469130135, guid: cd41375233f6447a0b040cac5c1c8ca7,
      type: 3}
  - m_RefCount: 1
    m_Data: {fileID: 2498007999301824240, guid: cd41375233f6447a0b040cac5c1c8ca7,
      type: 3}
  - m_RefCount: 1
    m_Data: {fileID: 3139786459692727089, guid: cd41375233f6447a0b040cac5c1c8ca7,
      type: 3}
  - m_RefCount: 1
    m_Data: {fileID: -626736681822609194, guid: cd41375233f6447a0b040cac5c1c8ca7,
      type: 3}
  - m_RefCount: 1
    m_Data: {fileID: -5981508079050943261, guid: cd41375233f6447a0b040cac5c1c8ca7,
      type: 3}
  - m_RefCount: 1
    m_Data: {fileID: 1061181368633616886, guid: cd41375233f6447a0b040cac5c1c8ca7,
      type: 3}
  - m_RefCount: 1
    m_Data: {fileID: -1620226364640072190, guid: cd41375233f6447a0b040cac5c1c8ca7,
      type: 3}
  - m_RefCount: 1
    m_Data: {fileID: -2200852838146477726, guid: cd41375233f6447a0b040cac5c1c8ca7,
      type: 3}
  - m_RefCount: 1
    m_Data: {fileID: 4159568089597728320, guid: bdf81520c1000498a842bad62734d3a4,
      type: 3}
  - m_RefCount: 1
    m_Data: {fileID: 8294065115596570887, guid: bdf81520c1000498a842bad62734d3a4,
      type: 3}
  - m_RefCount: 1
    m_Data: {fileID: -775226387073531731, guid: bdf81520c1000498a842bad62734d3a4,
      type: 3}
  - m_RefCount: 1
    m_Data: {fileID: -6629425355380707760, guid: bdf81520c1000498a842bad62734d3a4,
      type: 3}
  - m_RefCount: 1
    m_Data: {fileID: 1355621419676996206, guid: bdf81520c1000498a842bad62734d3a4,
      type: 3}
  - m_RefCount: 1
    m_Data: {fileID: 2341458058563369396, guid: bdf81520c1000498a842bad62734d3a4,
      type: 3}
  - m_RefCount: 1
    m_Data: {fileID: -1479397413618689490, guid: bdf81520c1000498a842bad62734d3a4,
      type: 3}
  - m_RefCount: 1
    m_Data: {fileID: 4438093828367089250, guid: bdf81520c1000498a842bad62734d3a4,
      type: 3}
  - m_RefCount: 1
    m_Data: {fileID: 7676276217316784753, guid: bdf81520c1000498a842bad62734d3a4,
      type: 3}
  - m_RefCount: 1
    m_Data: {fileID: -5816321264224996400, guid: bdf81520c1000498a842bad62734d3a4,
      type: 3}
  - m_RefCount: 1
    m_Data: {fileID: -8941889911468070940, guid: bdf81520c1000498a842bad62734d3a4,
      type: 3}
  - m_RefCount: 1
    m_Data: {fileID: -1596950075220025365, guid: bdf81520c1000498a842bad62734d3a4,
      type: 3}
  - m_RefCount: 1
    m_Data: {fileID: -3890183331721169897, guid: bdf81520c1000498a842bad62734d3a4,
      type: 3}
  - m_RefCount: 1
    m_Data: {fileID: -764268257437566177, guid: bdf81520c1000498a842bad62734d3a4,
      type: 3}
  - m_RefCount: 1
    m_Data: {fileID: 1058497159836975382, guid: bdf81520c1000498a842bad62734d3a4,
      type: 3}
  - m_RefCount: 1
    m_Data: {fileID: 3346904227471147562, guid: bdf81520c1000498a842bad62734d3a4,
      type: 3}
  - m_RefCount: 1
    m_Data: {fileID: -5996555808775523118, guid: bdf81520c1000498a842bad62734d3a4,
      type: 3}
  - m_RefCount: 1
    m_Data: {fileID: -7329238594333011858, guid: bdf81520c1000498a842bad62734d3a4,
      type: 3}
  - m_RefCount: 1
    m_Data: {fileID: -7760598609140636654, guid: bdf81520c1000498a842bad62734d3a4,
      type: 3}
  - m_RefCount: 1
    m_Data: {fileID: -8683164745139068197, guid: bdf81520c1000498a842bad62734d3a4,
      type: 3}
  - m_RefCount: 1
    m_Data: {fileID: -2674778657426261320, guid: bdf81520c1000498a842bad62734d3a4,
      type: 3}
  - m_RefCount: 1
    m_Data: {fileID: -5975779770406313269, guid: bdf81520c1000498a842bad62734d3a4,
      type: 3}
  - m_RefCount: 1
    m_Data: {fileID: 4972419466108360057, guid: bdf81520c1000498a842bad62734d3a4,
      type: 3}
  - m_RefCount: 1
    m_Data: {fileID: -8911960334841176951, guid: bdf81520c1000498a842bad62734d3a4,
      type: 3}
  - m_RefCount: 1
    m_Data: {fileID: -7515982640441095771, guid: bdf81520c1000498a842bad62734d3a4,
      type: 3}
  - m_RefCount: 1
    m_Data: {fileID: -6044337404587142871, guid: bdf81520c1000498a842bad62734d3a4,
      type: 3}
  - m_RefCount: 1
    m_Data: {fileID: 7627294493857837195, guid: bdf81520c1000498a842bad62734d3a4,
      type: 3}
  - m_RefCount: 1
    m_Data: {fileID: 6103450248385795209, guid: bdf81520c1000498a842bad62734d3a4,
      type: 3}
  - m_RefCount: 1
    m_Data: {fileID: 1885991524339295310, guid: bdf81520c1000498a842bad62734d3a4,
      type: 3}
  - m_RefCount: 1
    m_Data: {fileID: -2128275384349035223, guid: bdf81520c1000498a842bad62734d3a4,
      type: 3}
  - m_RefCount: 1
    m_Data: {fileID: 1844176973064615277, guid: bdf81520c1000498a842bad62734d3a4,
      type: 3}
  - m_RefCount: 1
    m_Data: {fileID: 7162130994589095207, guid: bdf81520c1000498a842bad62734d3a4,
      type: 3}
  - m_RefCount: 1
    m_Data: {fileID: -4560309731064735145, guid: bdf81520c1000498a842bad62734d3a4,
      type: 3}
  - m_RefCount: 1
    m_Data: {fileID: -1459430565409927454, guid: bdf81520c1000498a842bad62734d3a4,
      type: 3}
  - m_RefCount: 1
    m_Data: {fileID: 7305571852626828553, guid: bdf81520c1000498a842bad62734d3a4,
      type: 3}
  - m_RefCount: 1
    m_Data: {fileID: -4675914706735775506, guid: bdf81520c1000498a842bad62734d3a4,
      type: 3}
  - m_RefCount: 1
    m_Data: {fileID: 6504966088351990403, guid: bdf81520c1000498a842bad62734d3a4,
      type: 3}
  - m_RefCount: 1
    m_Data: {fileID: -4756383070183354038, guid: bdf81520c1000498a842bad62734d3a4,
      type: 3}
  - m_RefCount: 1
    m_Data: {fileID: 2429140243732680481, guid: bdf81520c1000498a842bad62734d3a4,
      type: 3}
  - m_RefCount: 1
    m_Data: {fileID: -1788889407289391909, guid: bdf81520c1000498a842bad62734d3a4,
      type: 3}
  - m_RefCount: 1
    m_Data: {fileID: 1862913390732439612, guid: bdf81520c1000498a842bad62734d3a4,
      type: 3}
  - m_RefCount: 1
    m_Data: {fileID: 568080953663314700, guid: bdf81520c1000498a842bad62734d3a4, type: 3}
  - m_RefCount: 1
    m_Data: {fileID: -1799888677651468608, guid: bdf81520c1000498a842bad62734d3a4,
      type: 3}
  - m_RefCount: 1
    m_Data: {fileID: -2385298808964642930, guid: bdf81520c1000498a842bad62734d3a4,
      type: 3}
  - m_RefCount: 1
    m_Data: {fileID: -3786784116473081908, guid: bdf81520c1000498a842bad62734d3a4,
      type: 3}
  - m_RefCount: 1
    m_Data: {fileID: -8842563075519525209, guid: bdf81520c1000498a842bad62734d3a4,
      type: 3}
  - m_RefCount: 1
    m_Data: {fileID: 763451749077501462, guid: bdf81520c1000498a842bad62734d3a4, type: 3}
  - m_RefCount: 1
    m_Data: {fileID: 2714076578277475737, guid: bdf81520c1000498a842bad62734d3a4,
      type: 3}
  - m_RefCount: 1
    m_Data: {fileID: -8579200696961612278, guid: bdf81520c1000498a842bad62734d3a4,
      type: 3}
  - m_RefCount: 1
    m_Data: {fileID: -492781585996156344, guid: bdf81520c1000498a842bad62734d3a4,
      type: 3}
  - m_RefCount: 1
    m_Data: {fileID: -7239980429421254645, guid: bdf81520c1000498a842bad62734d3a4,
      type: 3}
  - m_RefCount: 1
    m_Data: {fileID: 1961653900942668930, guid: bdf81520c1000498a842bad62734d3a4,
      type: 3}
  - m_RefCount: 1
    m_Data: {fileID: -2162885704296385135, guid: bdf81520c1000498a842bad62734d3a4,
      type: 3}
  - m_RefCount: 1
    m_Data: {fileID: -2741474868937207270, guid: bdf81520c1000498a842bad62734d3a4,
      type: 3}
  - m_RefCount: 1
    m_Data: {fileID: 612001820223608477, guid: bdf81520c1000498a842bad62734d3a4, type: 3}
  - m_RefCount: 1
    m_Data: {fileID: 4772912741023987474, guid: bdf81520c1000498a842bad62734d3a4,
      type: 3}
  - m_RefCount: 1
    m_Data: {fileID: 8077611282992404321, guid: bdf81520c1000498a842bad62734d3a4,
      type: 3}
  - m_RefCount: 1
    m_Data: {fileID: 6025058451519317224, guid: bdf81520c1000498a842bad62734d3a4,
      type: 3}
  - m_RefCount: 1
    m_Data: {fileID: -1303663410754584591, guid: bdf81520c1000498a842bad62734d3a4,
      type: 3}
  - m_RefCount: 1
    m_Data: {fileID: 4079073248274693767, guid: bdf81520c1000498a842bad62734d3a4,
      type: 3}
  - m_RefCount: 1
    m_Data: {fileID: 3491508794482452793, guid: bdf81520c1000498a842bad62734d3a4,
      type: 3}
  - m_RefCount: 1
    m_Data: {fileID: -7000978828306321844, guid: bdf81520c1000498a842bad62734d3a4,
      type: 3}
  - m_RefCount: 1
    m_Data: {fileID: -5808374209227927868, guid: bdf81520c1000498a842bad62734d3a4,
      type: 3}
  - m_RefCount: 1
    m_Data: {fileID: 436292264053462260, guid: bdf81520c1000498a842bad62734d3a4, type: 3}
  - m_RefCount: 1
    m_Data: {fileID: -9062784284680598117, guid: bdf81520c1000498a842bad62734d3a4,
      type: 3}
  - m_RefCount: 1
    m_Data: {fileID: -3964634185503852935, guid: bdf81520c1000498a842bad62734d3a4,
      type: 3}
  - m_RefCount: 1
    m_Data: {fileID: 1474997228619497527, guid: bdf81520c1000498a842bad62734d3a4,
      type: 3}
  - m_RefCount: 1
    m_Data: {fileID: -5421029199117123669, guid: bdf81520c1000498a842bad62734d3a4,
      type: 3}
  - m_RefCount: 1
    m_Data: {fileID: -5806029991906250598, guid: bdf81520c1000498a842bad62734d3a4,
      type: 3}
  - m_RefCount: 1
    m_Data: {fileID: 5506510866277261457, guid: bdf81520c1000498a842bad62734d3a4,
      type: 3}
  - m_RefCount: 1
    m_Data: {fileID: 3309723867470410279, guid: bdf81520c1000498a842bad62734d3a4,
      type: 3}
  - m_RefCount: 1
    m_Data: {fileID: 8475588190234859366, guid: bdf81520c1000498a842bad62734d3a4,
      type: 3}
  - m_RefCount: 1
    m_Data: {fileID: 3256960294455722205, guid: bdf81520c1000498a842bad62734d3a4,
      type: 3}
  - m_RefCount: 1
    m_Data: {fileID: -8478750959920953996, guid: bdf81520c1000498a842bad62734d3a4,
      type: 3}
  - m_RefCount: 1
    m_Data: {fileID: 63410929181416051, guid: bdf81520c1000498a842bad62734d3a4, type: 3}
  - m_RefCount: 1
    m_Data: {fileID: 8399679207959363903, guid: bdf81520c1000498a842bad62734d3a4,
      type: 3}
  - m_RefCount: 1
    m_Data: {fileID: 8676224386653750975, guid: bdf81520c1000498a842bad62734d3a4,
      type: 3}
  - m_RefCount: 1
    m_Data: {fileID: 618592421099471367, guid: bdf81520c1000498a842bad62734d3a4, type: 3}
  - m_RefCount: 1
    m_Data: {fileID: 2760977391491050808, guid: bdf81520c1000498a842bad62734d3a4,
      type: 3}
  - m_RefCount: 1
    m_Data: {fileID: -4334619993504196297, guid: bdf81520c1000498a842bad62734d3a4,
      type: 3}
  - m_RefCount: 1
    m_Data: {fileID: -9125444130609959331, guid: bdf81520c1000498a842bad62734d3a4,
      type: 3}
  - m_RefCount: 1
    m_Data: {fileID: 7554728686208676874, guid: bdf81520c1000498a842bad62734d3a4,
      type: 3}
  - m_RefCount: 1
    m_Data: {fileID: 3753900295350286918, guid: bdf81520c1000498a842bad62734d3a4,
      type: 3}
  - m_RefCount: 1
    m_Data: {fileID: -7722552384488703577, guid: bdf81520c1000498a842bad62734d3a4,
      type: 3}
  - m_RefCount: 1
    m_Data: {fileID: -38216464500675642, guid: bdf81520c1000498a842bad62734d3a4, type: 3}
  - m_RefCount: 1
    m_Data: {fileID: 4981635137085692013, guid: bdf81520c1000498a842bad62734d3a4,
      type: 3}
  - m_RefCount: 1
    m_Data: {fileID: 6627233405309189438, guid: bdf81520c1000498a842bad62734d3a4,
      type: 3}
  - m_RefCount: 1
    m_Data: {fileID: 4961732000837889492, guid: bdf81520c1000498a842bad62734d3a4,
      type: 3}
  - m_RefCount: 1
    m_Data: {fileID: -8520866891973323737, guid: bdf81520c1000498a842bad62734d3a4,
      type: 3}
  m_TileMatrixArray:
  - m_RefCount: 104
    m_Data:
      e00: 1
      e01: 0
      e02: 0
      e03: 0
      e10: 0
      e11: 1
      e12: 0
      e13: 0
      e20: 0
      e21: 0
      e22: 1
      e23: 0
      e30: 0
      e31: 0
      e32: 0
      e33: 1
  m_TileColorArray:
  - m_RefCount: 0
    m_Data: {r: 0.8657658, g: 0.49417442, b: 0.54543084, a: 1}
  - m_RefCount: 0
    m_Data: {r: 0.95378435, g: 0.59390813, b: 0.6917199, a: 1}
  - m_RefCount: 0
    m_Data: {r: 0.7973902, g: 0.42458436, b: 0.5012355, a: 1}
  - m_RefCount: 0
    m_Data: {r: 0.91837776, g: 0.5349228, b: 0.6462198, a: 1}
  - m_RefCount: 0
    m_Data: {r: 0.8852866, g: 0.4726365, b: 0.55285364, a: 1}
  - m_RefCount: 0
    m_Data: {r: 0.9814178, g: 0.52333087, b: 0.6259185, a: 1}
  - m_RefCount: 0
    m_Data: {r: 0.7646723, g: 0.38385415, b: 0.48734364, a: 1}
  - m_RefCount: 0
    m_Data: {r: 0.75651723, g: 0.52480674, b: 0.5693379, a: 1}
  - m_RefCount: 0
    m_Data: {r: 0.76309645, g: 0.46279806, b: 0.5021612, a: 1}
  - m_RefCount: 0
    m_Data: {r: 0.82922107, g: 0.38605845, b: 0.4592515, a: 1}
  - m_RefCount: 0
    m_Data: {r: 0.80422777, g: 0.52986413, b: 0.5700756, a: 1}
  - m_RefCount: 0
    m_Data: {r: 0.8441598, g: 0.47651893, b: 0.49299112, a: 1}
  - m_RefCount: 0
    m_Data: {r: 0.8301938, g: 0.41803697, b: 0.5409546, a: 1}
  - m_RefCount: 0
    m_Data: {r: 0.8357099, g: 0.42365485, b: 0.5576043, a: 1}
  - m_RefCount: 0
    m_Data: {r: 0.94192314, g: 0.54076207, b: 0.63937587, a: 1}
  - m_RefCount: 0
    m_Data: {r: 0.8329854, g: 0.5382959, b: 0.54833895, a: 1}
  - m_RefCount: 0
    m_Data: {r: 0.7757208, g: 0.53115344, b: 0.5883839, a: 1}
  - m_RefCount: 0
    m_Data: {r: 0.9616788, g: 0.56724066, b: 0.6154483, a: 1}
  - m_RefCount: 0
    m_Data: {r: 0.94393, g: 0.41009885, b: 0.5419107, a: 1}
  - m_RefCount: 0
    m_Data: {r: 0.75482136, g: 0.4242044, b: 0.5242254, a: 1}
  - m_RefCount: 0
    m_Data: {r: 0.76070386, g: 0.48628432, b: 0.5181878, a: 1}
  - m_RefCount: 0
    m_Data: {r: 0.811868, g: 0.55132425, b: 0.5724533, a: 1}
  - m_RefCount: 0
    m_Data: {r: 0.7532724, g: 0.5266303, b: 0.5503247, a: 1}
  - m_RefCount: 0
    m_Data: {r: 0.94777036, g: 0.5349102, b: 0.6101142, a: 1}
  - m_RefCount: 0
    m_Data: {r: 0.854791, g: 0.43193653, b: 0.49798477, a: 1}
  - m_RefCount: 0
    m_Data: {r: 0.89668614, g: 0.37368792, b: 0.47105432, a: 1}
  - m_RefCount: 0
    m_Data: {r: 0.7293894, g: 0.5016825, b: 0.55390877, a: 1}
  - m_RefCount: 0
    m_Data: {r: 0.8279842, g: 0.5466459, b: 0.59912246, a: 1}
  - m_RefCount: 0
    m_Data: {r: 0.7019188, g: 0.41973317, b: 0.4228371, a: 1}
  - m_RefCount: 0
    m_Data: {r: 0.7758084, g: 0.44848064, b: 0.45996046, a: 1}
  - m_RefCount: 0
    m_Data: {r: 0.93859535, g: 0.6422705, b: 0.6490445, a: 1}
  - m_RefCount: 0
    m_Data: {r: 0.9886834, g: 0.44292742, b: 0.4541816, a: 1}
  - m_RefCount: 0
    m_Data: {r: 0.9357018, g: 0.40644708, b: 0.45284903, a: 1}
  - m_RefCount: 0
    m_Data: {r: 0.817391, g: 0.47390065, b: 0.53710467, a: 1}
  - m_RefCount: 0
    m_Data: {r: 0.76430064, g: 0.41040534, b: 0.45382044, a: 1}
  - m_RefCount: 0
    m_Data: {r: 0.8789139, g: 0.45381787, b: 0.47721553, a: 1}
  - m_RefCount: 0
    m_Data: {r: 0.8123912, g: 0.37403944, b: 0.39714184, a: 1}
  - m_RefCount: 0
    m_Data: {r: 0.9611465, g: 0.4841252, b: 0.5527867, a: 1}
  - m_RefCount: 0
    m_Data: {r: 0.866711, g: 0.39463112, b: 0.5082629, a: 1}
  - m_RefCount: 0
    m_Data: {r: 0.9159633, g: 0.40540612, b: 0.5303285, a: 1}
  - m_RefCount: 0
    m_Data: {r: 0.93605787, g: 0.58131003, b: 0.6835028, a: 1}
  - m_RefCount: 0
    m_Data: {r: 0.88799244, g: 0.39638802, b: 0.4571691, a: 1}
  - m_RefCount: 0
    m_Data: {r: 0.7340198, g: 0.45270565, b: 0.50208956, a: 1}
  - m_RefCount: 0
    m_Data: {r: 0.89647686, g: 0.5412511, b: 0.57187283, a: 1}
  - m_RefCount: 0
    m_Data: {r: 0.90995985, g: 0.5156845, b: 0.6409572, a: 1}
  - m_RefCount: 0
    m_Data: {r: 0.78216857, g: 0.5178991, b: 0.52353185, a: 1}
  - m_RefCount: 0
    m_Data: {r: 0.723866, g: 0.35958448, b: 0.38122803, a: 1}
  - m_RefCount: 0
    m_Data: {r: 0.7524205, g: 0.5025323, b: 0.5299992, a: 1}
  - m_RefCount: 0
    m_Data: {r: 0.7526924, g: 0.41041115, b: 0.47352847, a: 1}
  - m_RefCount: 0
    m_Data: {r: 0.8638588, g: 0.40733942, b: 0.4379865, a: 1}
  - m_RefCount: 0
    m_Data: {r: 0.98460025, g: 0.50999093, b: 0.6513106, a: 1}
  - m_RefCount: 0
    m_Data: {r: 0.90402925, g: 0.63255775, b: 0.71465164, a: 1}
  - m_RefCount: 0
    m_Data: {r: 0.93239003, g: 0.50456595, b: 0.58957785, a: 1}
  - m_RefCount: 0
    m_Data: {r: 0.8470503, g: 0.39537612, b: 0.39859682, a: 1}
  - m_RefCount: 0
    m_Data: {r: 0.915646, g: 0.520566, b: 0.6010992, a: 1}
  - m_RefCount: 0
    m_Data: {r: 0.83609915, g: 0.37548974, b: 0.44878876, a: 1}
  - m_RefCount: 0
    m_Data: {r: 0.9301346, g: 0.39184397, b: 0.5682822, a: 1}
  - m_RefCount: 0
    m_Data: {r: 0.8903479, g: 0.51191044, b: 0.6328349, a: 1}
  - m_RefCount: 0
    m_Data: {r: 0.81148064, g: 0.52223814, b: 0.5253956, a: 1}
  - m_RefCount: 0
    m_Data: {r: 0.9590299, g: 0.5976076, b: 0.66559196, a: 1}
  - m_RefCount: 0
    m_Data: {r: 0.9546519, g: 0.59492433, b: 0.6358226, a: 1}
  - m_RefCount: 0
    m_Data: {r: 0.72672105, g: 0.4557211, b: 0.47586772, a: 1}
  - m_RefCount: 0
    m_Data: {r: 0.99049556, g: 0.43822238, b: 0.56194603, a: 1}
  - m_RefCount: 0
    m_Data: {r: 0.7259133, g: 0.3517816, b: 0.35600898, a: 1}
  - m_RefCount: 0
    m_Data: {r: 0.9367051, g: 0.55679154, b: 0.6325647, a: 1}
  - m_RefCount: 0
    m_Data: {r: 0.73065567, g: 0.46707773, b: 0.53499925, a: 1}
  - m_RefCount: 0
    m_Data: {r: 0.744848, g: 0.4703759, b: 0.47590315, a: 1}
  - m_RefCount: 0
    m_Data: {r: 0.93067324, g: 0.4336158, b: 0.49732462, a: 1}
  - m_RefCount: 0
    m_Data: {r: 0.94019467, g: 0.4887833, b: 0.52458215, a: 1}
  - m_RefCount: 0
    m_Data: {r: 0.7866401, g: 0.38046962, b: 0.49515247, a: 1}
  - m_RefCount: 0
    m_Data: {r: 0.9805108, g: 0.59009534, b: 0.7014006, a: 1}
  - m_RefCount: 0
    m_Data: {r: 0.8972964, g: 0.45583126, b: 0.5757146, a: 1}
  - m_RefCount: 0
    m_Data: {r: 0.9082149, g: 0.56827354, b: 0.57685447, a: 1}
  - m_RefCount: 0
    m_Data: {r: 0.7787962, g: 0.49943468, b: 0.5905724, a: 1}
  - m_RefCount: 0
    m_Data: {r: 0.92693424, g: 0.4382558, b: 0.5287004, a: 1}
  - m_RefCount: 0
    m_Data: {r: 0.90579087, g: 0.54257715, b: 0.60812527, a: 1}
  - m_RefCount: 0
    m_Data: {r: 0.923014, g: 0.42954543, b: 0.5062179, a: 1}
  - m_RefCount: 0
    m_Data: {r: 0.83708483, g: 0.35266683, b: 0.45401672, a: 1}
  - m_RefCount: 0
    m_Data: {r: 0.981879, g: 0.67156386, b: 0.71864825, a: 1}
  - m_RefCount: 0
    m_Data: {r: 0.9289238, g: 0.53187823, b: 0.6395048, a: 1}
  - m_RefCount: 0
    m_Data: {r: 0.7259608, g: 0.30901435, b: 0.41696206, a: 1}
  - m_RefCount: 0
    m_Data: {r: 0.97730774, g: 0.5795639, b: 0.612825, a: 1}
  - m_RefCount: 0
    m_Data: {r: 0.8614198, g: 0.50869733, b: 0.5879751, a: 1}
  - m_RefCount: 0
    m_Data: {r: 0.8248391, g: 0.5009447, b: 0.605873, a: 1}
  - m_RefCount: 0
    m_Data: {r: 0.8151382, g: 0.55274665, b: 0.62969977, a: 1}
  - m_RefCount: 0
    m_Data: {r: 0.99332476, g: 0.5417768, b: 0.6745705, a: 1}
  - m_RefCount: 0
    m_Data: {r: 0.9537559, g: 0.5298475, b: 0.5685766, a: 1}
  - m_RefCount: 0
    m_Data: {r: 0.9580101, g: 0.59166723, b: 0.60100335, a: 1}
  - m_RefCount: 0
    m_Data: {r: 0.8319999, g: 0.33987173, b: 0.4980927, a: 1}
  - m_RefCount: 0
    m_Data: {r: 0.8901675, g: 0.42865446, b: 0.48909682, a: 1}
  - m_RefCount: 0
    m_Data: {r: 0.76912415, g: 0.5161816, b: 0.572708, a: 1}
  - m_RefCount: 0
    m_Data: {r: 0.9130497, g: 0.5239782, b: 0.5827161, a: 1}
  - m_RefCount: 0
    m_Data: {r: 0.9472448, g: 0.46042717, b: 0.5623021, a: 1}
  - m_RefCount: 0
    m_Data: {r: 0.9876001, g: 0.4993407, b: 0.57161695, a: 1}
  - m_RefCount: 0
    m_Data: {r: 0.8940903, g: 0.56202227, b: 0.60677487, a: 1}
  - m_RefCount: 0
    m_Data: {r: 0.80505955, g: 0.41205376, b: 0.5041937, a: 1}
  - m_RefCount: 0
    m_Data: {r: 0.83900976, g: 0.51774997, b: 0.5527683, a: 1}
  - m_RefCount: 0
    m_Data: {r: 0.85367846, g: 0.43736783, b: 0.45675772, a: 1}
  - m_RefCount: 0
    m_Data: {r: 0.93909055, g: 0.4690654, b: 0.59113735, a: 1}
  - m_RefCount: 0
    m_Data: {r: 0.8863439, g: 0.59247726, b: 0.6061878, a: 1}
  - m_RefCount: 0
    m_Data: {r: 0.820231, g: 0.4754715, b: 0.5136668, a: 1}
  - m_RefCount: 0
    m_Data: {r: 0.8620744, g: 0.3813318, b: 0.4618736, a: 1}
  - m_RefCount: 0
    m_Data: {r: 0.873336, g: 0.5676754, b: 0.6612057, a: 1}
  - m_RefCount: 0
    m_Data: {r: 0.8707504, g: 0.5643112, b: 0.6611762, a: 1}
  - m_RefCount: 0
    m_Data: {r: 0.78525275, g: 0.4345396, b: 0.4999548, a: 1}
  - m_RefCount: 0
    m_Data: {r: 0.7717802, g: 0.3629795, b: 0.36360484, a: 1}
  - m_RefCount: 0
    m_Data: {r: 0.94023067, g: 0.49916366, b: 0.5029458, a: 1}
  - m_RefCount: 0
    m_Data: {r: 0.9966756, g: 0.40653315, b: 0.46536866, a: 1}
  - m_RefCount: 0
    m_Data: {r: 0.7587656, g: 0.43258145, b: 0.48633993, a: 1}
  - m_RefCount: 0
    m_Data: {r: 0.7346379, g: 0.49648106, b: 0.527543, a: 1}
  - m_RefCount: 0
    m_Data: {r: 0.97926676, g: 0.52900004, b: 0.5450498, a: 1}
  - m_RefCount: 0
    m_Data: {r: 0.9110199, g: 0.42850497, b: 0.57224995, a: 1}
  - m_RefCount: 0
    m_Data: {r: 0.7273211, g: 0.4058205, b: 0.50144625, a: 1}
  - m_RefCount: 0
    m_Data: {r: 0.7459815, g: 0.5131738, b: 0.53486, a: 1}
  - m_RefCount: 0
    m_Data: {r: 0.9947266, g: 0.65357584, b: 0.74840266, a: 1}
  - m_RefCount: 0
    m_Data: {r: 0.86093736, g: 0.4621912, b: 0.47646004, a: 1}
  - m_RefCount: 0
    m_Data: {r: 0.9275457, g: 0.38776633, b: 0.49873868, a: 1}
  - m_RefCount: 0
    m_Data: {r: 0.83422947, g: 0.34729868, b: 0.46551794, a: 1}
  - m_RefCount: 0
    m_Data: {r: 0.95876986, g: 0.5490641, b: 0.5515403, a: 1}
  - m_RefCount: 0
    m_Data: {r: 0.777388, g: 0.40758806, b: 0.42631513, a: 1}
  - m_RefCount: 0
    m_Data: {r: 0.92412287, g: 0.5653482, b: 0.6403282, a: 1}
  - m_RefCount: 0
    m_Data: {r: 0.76901865, g: 0.35240948, b: 0.37400067, a: 1}
  - m_RefCount: 0
    m_Data: {r: 0.9453688, g: 0.388187, b: 0.5139944, a: 1}
  - m_RefCount: 0
    m_Data: {r: 0.73534673, g: 0.38396943, b: 0.44921398, a: 1}
  - m_RefCount: 0
    m_Data: {r: 0.75575775, g: 0.37101215, b: 0.40411952, a: 1}
  - m_RefCount: 0
    m_Data: {r: 0.81983906, g: 0.46702558, b: 0.560902, a: 1}
  - m_RefCount: 0
    m_Data: {r: 0.85990316, g: 0.5982882, b: 0.67325985, a: 1}
  - m_RefCount: 0
    m_Data: {r: 0.93594337, g: 0.45304197, b: 0.48431706, a: 1}
  - m_RefCount: 0
    m_Data: {r: 0.89658856, g: 0.5201064, b: 0.59510505, a: 1}
  - m_RefCount: 0
    m_Data: {r: 0.7900523, g: 0.36104587, b: 0.38302365, a: 1}
  - m_RefCount: 0
    m_Data: {r: 0.81287485, g: 0.4184968, b: 0.52612954, a: 1}
  - m_RefCount: 0
    m_Data: {r: 0.8929578, g: 0.49470142, b: 0.5503198, a: 1}
  - m_RefCount: 0
    m_Data: {r: 0.7109, g: 0.2898789, b: 0.3298445, a: 1}
  - m_RefCount: 0
    m_Data: {r: 0.89445573, g: 0.44927382, b: 0.4910279, a: 1}
  - m_RefCount: 0
    m_Data: {r: 0.8886349, g: 0.6001444, b: 0.61368275, a: 1}
  - m_RefCount: 0
    m_Data: {r: 0.86180854, g: 0.42284578, b: 0.4324158, a: 1}
  - m_RefCount: 0
    m_Data: {r: 0.91704506, g: 0.47493958, b: 0.5131932, a: 1}
  - m_RefCount: 0
    m_Data: {r: 0.916706, g: 0.41346022, b: 0.4433862, a: 1}
  - m_RefCount: 0
    m_Data: {r: 0.9207664, g: 0.46153942, b: 0.594786, a: 1}
  - m_RefCount: 0
    m_Data: {r: 0.73266834, g: 0.4975507, b: 0.51526564, a: 1}
  - m_RefCount: 0
    m_Data: {r: 0.7274521, g: 0.47191858, b: 0.4748769, a: 1}
  - m_RefCount: 0
    m_Data: {r: 0.75821173, g: 0.50865304, b: 0.51999813, a: 1}
  - m_RefCount: 0
    m_Data: {r: 0.93978465, g: 0.44672173, b: 0.6033276, a: 1}
  - m_RefCount: 0
    m_Data: {r: 0.914093, g: 0.4701156, b: 0.49944183, a: 1}
  - m_RefCount: 0
    m_Data: {r: 0.70461327, g: 0.29327196, b: 0.36267436, a: 1}
  - m_RefCount: 104
    m_Data: {r: 1, g: 1, b: 1, a: 1}
  m_TileObjectToInstantiateArray: []
  m_AnimationFrameRate: 1
  m_Color: {r: 1, g: 1, b: 1, a: 1}
  m_Origin: {x: -61, y: -10, z: 0}
  m_Size: {x: 68, y: 41, z: 1}
  m_TileAnchor: {x: 0.5, y: 0.5, z: 0}
  m_TileOrientation: 0
  m_TileOrientationMatrix:
    e00: 1
    e01: 0
    e02: 0
    e03: 0
    e10: 0
    e11: 1
    e12: 0
    e13: 0
    e20: 0
    e21: 0
    e22: 1
    e23: 0
    e30: 0
    e31: 0
    e32: 0
    e33: 1
--- !u!483693784 &111926666564199410
TilemapRenderer:
  m_ObjectHideFlags: 0
  m_CorrespondingSourceObject: {fileID: 0}
  m_PrefabInstance: {fileID: 0}
  m_PrefabAsset: {fileID: 0}
  m_GameObject: {fileID: 7854529704784669688}
  m_Enabled: 0
  m_CastShadows: 0
  m_ReceiveShadows: 0
  m_DynamicOccludee: 0
  m_MotionVectors: 1
  m_LightProbeUsage: 0
  m_ReflectionProbeUsage: 0
  m_RayTracingMode: 0
  m_RenderingLayerMask: 1
  m_RendererPriority: 0
  m_Materials:
  - {fileID: 2100000, guid: a97c105638bdf8b4a8650670310a4cd3, type: 2}
  m_StaticBatchInfo:
    firstSubMesh: 0
    subMeshCount: 0
  m_StaticBatchRoot: {fileID: 0}
  m_ProbeAnchor: {fileID: 0}
  m_LightProbeVolumeOverride: {fileID: 0}
  m_ScaleInLightmap: 1
  m_ReceiveGI: 1
  m_PreserveUVs: 0
  m_IgnoreNormalsForChartDetection: 0
  m_ImportantGI: 0
  m_StitchLightmapSeams: 1
  m_SelectedEditorRenderState: 0
  m_MinimumChartSize: 4
  m_AutoUVMaxDistance: 0.5
  m_AutoUVMaxAngle: 89
  m_LightmapParameters: {fileID: 0}
  m_SortingLayerID: 0
  m_SortingLayer: 0
  m_SortingOrder: 0
  m_ChunkSize: {x: 32, y: 32, z: 32}
  m_ChunkCullingBounds: {x: 0, y: 0, z: 0}
  m_MaxChunkCount: 16
  m_MaxFrameAge: 16
  m_SortOrder: 0
  m_Mode: 0
  m_DetectChunkCullingBounds: 0
  m_MaskInteraction: 0
--- !u!114 &8579481387861843375
MonoBehaviour:
  m_ObjectHideFlags: 0
  m_CorrespondingSourceObject: {fileID: 0}
  m_PrefabInstance: {fileID: 0}
  m_PrefabAsset: {fileID: 0}
  m_GameObject: {fileID: 0}
  m_Enabled: 1
  m_EditorHideFlags: 0
  m_Script: {fileID: 12395, guid: 0000000000000000e000000000000000, type: 0}
  m_Name: Palette Settings
  m_EditorClassIdentifier: 
  cellSizing: 0
