%YAML 1.1
%TAG !u! tag:unity3d.com,2011:
--- !u!114 &11400000
MonoBehaviour:
  m_ObjectHideFlags: 0
  m_CorrespondingSourceObject: {fileID: 0}
  m_PrefabInstance: {fileID: 0}
  m_PrefabAsset: {fileID: 0}
  m_GameObject: {fileID: 0}
  m_Enabled: 1
  m_EditorHideFlags: 0
  m_Script: {fileID: 11500000, guid: 13b75c95f34a00d4e8c04f76b73312e6, type: 3}
  m_Name: WaterLedgeTile
  m_EditorClassIdentifier: 
  m_AnimatedSprites:
  - {fileID: 3712576624757543208, guid: 311f207cc6c3f48cea7646c54c4e8b8d, type: 3}
  - {fileID: -8645093916849674197, guid: 311f207cc6c3f48cea7646c54c4e8b8d, type: 3}
  - {fileID: -4578662085597020242, guid: 311f207cc6c3f48cea7646c54c4e8b8d, type: 3}
  - {fileID: -3823192577179921025, guid: 311f207cc6c3f48cea7646c54c4e8b8d, type: 3}
  m_MinSpeed: 2
  m_MaxSpeed: 3
  m_AnimationStartTime: 0
  m_AnimationStartFrame: 0
  m_TileColliderType: 0
