%YAML 1.1
%TAG !u! tag:unity3d.com,2011:
--- !u!74 &7400000
AnimationClip:
  m_ObjectHideFlags: 0
  m_CorrespondingSourceObject: {fileID: 0}
  m_PrefabInstance: {fileID: 0}
  m_PrefabAsset: {fileID: 0}
  m_Name: bodyIdleLeft
  serializedVersion: 6
  m_Legacy: 0
  m_Compressed: 0
  m_UseHighQualityCurve: 1
  m_RotationCurves: []
  m_CompressedRotationCurves: []
  m_EulerCurves: []
  m_PositionCurves: []
  m_ScaleCurves: []
  m_FloatCurves: []
  m_PPtrCurves:
  - curve:
    - time: 0
      value: {fileID: 7536639627463327066, guid: 4416ac756875e4e02bff2b1c74781007,
        type: 3}
    - time: 0.083333336
      value: {fileID: -3137240467375940711, guid: 4416ac756875e4e02bff2b1c74781007,
        type: 3}
    - time: 0.16666667
      value: {fileID: 4222221647142174387, guid: 4416ac756875e4e02bff2b1c74781007,
        type: 3}
    - time: 0.25
      value: {fileID: -8789622824823400521, guid: 4416ac756875e4e02bff2b1c74781007,
        type: 3}
    - time: 0.33333334
      value: {fileID: 2516109333353790351, guid: 4416ac756875e4e02bff2b1c74781007,
        type: 3}
    - time: 0.41666666
      value: {fileID: -4532024961741942579, guid: 4416ac756875e4e02bff2b1c74781007,
        type: 3}
    attribute: m_Sprite
    path: 
    classID: 212
    script: {fileID: 0}
  - curve:
    - time: 0
      value: {fileID: -9120485742061372614, guid: a82c8d2269e91446b949a2ebe4073a67,
        type: 3}
    - time: 0.083333336
      value: {fileID: -7490780727613428563, guid: a82c8d2269e91446b949a2ebe4073a67,
        type: 3}
    - time: 0.16666667
      value: {fileID: 9180689667160901710, guid: a82c8d2269e91446b949a2ebe4073a67,
        type: 3}
    - time: 0.25
      value: {fileID: -1489678343690737466, guid: a82c8d2269e91446b949a2ebe4073a67,
        type: 3}
    - time: 0.33333334
      value: {fileID: 7749210098252663285, guid: a82c8d2269e91446b949a2ebe4073a67,
        type: 3}
    - time: 0.41666666
      value: {fileID: 8649774174609197372, guid: a82c8d2269e91446b949a2ebe4073a67,
        type: 3}
    attribute: m_Sprite
    path: PlayerBandana
    classID: 212
    script: {fileID: 0}
  - curve:
    - time: 0
      value: {fileID: -9120485742061372614, guid: a82c8d2269e91446b949a2ebe4073a67,
        type: 3}
    - time: 0.083333336
      value: {fileID: -7490780727613428563, guid: a82c8d2269e91446b949a2ebe4073a67,
        type: 3}
    - time: 0.16666667
      value: {fileID: 9180689667160901710, guid: a82c8d2269e91446b949a2ebe4073a67,
        type: 3}
    - time: 0.25
      value: {fileID: -1489678343690737466, guid: a82c8d2269e91446b949a2ebe4073a67,
        type: 3}
    - time: 0.33333334
      value: {fileID: 7749210098252663285, guid: a82c8d2269e91446b949a2ebe4073a67,
        type: 3}
    - time: 0.41666666
      value: {fileID: 8649774174609197372, guid: a82c8d2269e91446b949a2ebe4073a67,
        type: 3}
    attribute: m_LightCookieSprite
    path: PlayerBandana/Sprite Light 2D
    classID: 114
    script: {fileID: 11500000, guid: 073797afb82c5a1438f328866b10b3f0, type: 3}
  m_SampleRate: 12
  m_WrapMode: 0
  m_Bounds:
    m_Center: {x: 0, y: 0, z: 0}
    m_Extent: {x: 0, y: 0, z: 0}
  m_ClipBindingConstant:
    genericBindings:
    - serializedVersion: 2
      path: 0
      attribute: 0
      script: {fileID: 0}
      typeID: 212
      customType: 23
      isPPtrCurve: 1
    - serializedVersion: 2
      path: 1116029681
      attribute: 0
      script: {fileID: 0}
      typeID: 212
      customType: 23
      isPPtrCurve: 1
    - serializedVersion: 2
      path: 2642625658
      attribute: 993967319
      script: {fileID: 11500000, guid: 073797afb82c5a1438f328866b10b3f0, type: 3}
      typeID: 114
      customType: 0
      isPPtrCurve: 1
    pptrCurveMapping:
    - {fileID: 7536639627463327066, guid: 4416ac756875e4e02bff2b1c74781007, type: 3}
    - {fileID: -3137240467375940711, guid: 4416ac756875e4e02bff2b1c74781007, type: 3}
    - {fileID: 4222221647142174387, guid: 4416ac756875e4e02bff2b1c74781007, type: 3}
    - {fileID: -8789622824823400521, guid: 4416ac756875e4e02bff2b1c74781007, type: 3}
    - {fileID: 2516109333353790351, guid: 4416ac756875e4e02bff2b1c74781007, type: 3}
    - {fileID: -4532024961741942579, guid: 4416ac756875e4e02bff2b1c74781007, type: 3}
    - {fileID: -9120485742061372614, guid: a82c8d2269e91446b949a2ebe4073a67, type: 3}
    - {fileID: -7490780727613428563, guid: a82c8d2269e91446b949a2ebe4073a67, type: 3}
    - {fileID: 9180689667160901710, guid: a82c8d2269e91446b949a2ebe4073a67, type: 3}
    - {fileID: -1489678343690737466, guid: a82c8d2269e91446b949a2ebe4073a67, type: 3}
    - {fileID: 7749210098252663285, guid: a82c8d2269e91446b949a2ebe4073a67, type: 3}
    - {fileID: 8649774174609197372, guid: a82c8d2269e91446b949a2ebe4073a67, type: 3}
    - {fileID: -9120485742061372614, guid: a82c8d2269e91446b949a2ebe4073a67, type: 3}
    - {fileID: -7490780727613428563, guid: a82c8d2269e91446b949a2ebe4073a67, type: 3}
    - {fileID: 9180689667160901710, guid: a82c8d2269e91446b949a2ebe4073a67, type: 3}
    - {fileID: -1489678343690737466, guid: a82c8d2269e91446b949a2ebe4073a67, type: 3}
    - {fileID: 7749210098252663285, guid: a82c8d2269e91446b949a2ebe4073a67, type: 3}
    - {fileID: 8649774174609197372, guid: a82c8d2269e91446b949a2ebe4073a67, type: 3}
  m_AnimationClipSettings:
    serializedVersion: 2
    m_AdditiveReferencePoseClip: {fileID: 0}
    m_AdditiveReferencePoseTime: 0
    m_StartTime: 0
    m_StopTime: 0.5
    m_OrientationOffsetY: 0
    m_Level: 0
    m_CycleOffset: 0
    m_HasAdditiveReferencePose: 0
    m_LoopTime: 1
    m_LoopBlend: 0
    m_LoopBlendOrientation: 0
    m_LoopBlendPositionY: 0
    m_LoopBlendPositionXZ: 0
    m_KeepOriginalOrientation: 0
    m_KeepOriginalPositionY: 1
    m_KeepOriginalPositionXZ: 0
    m_HeightFromFeet: 0
    m_Mirror: 0
  m_EditorCurves: []
  m_EulerEditorCurves: []
  m_HasGenericRootTransform: 0
  m_HasMotionFloatCurves: 0
  m_Events: []
