%YAML 1.1
%TAG !u! tag:unity3d.com,2011:
--- !u!74 &7400000
AnimationClip:
  m_ObjectHideFlags: 0
  m_CorrespondingSourceObject: {fileID: 0}
  m_PrefabInstance: {fileID: 0}
  m_PrefabAsset: {fileID: 0}
  m_Name: guardianFlapping
  serializedVersion: 6
  m_Legacy: 0
  m_Compressed: 0
  m_UseHighQualityCurve: 1
  m_RotationCurves: []
  m_CompressedRotationCurves: []
  m_EulerCurves: []
  m_PositionCurves:
  - curve:
      serializedVersion: 2
      m_Curve:
      - serializedVersion: 3
        time: 0
        value: {x: 0, y: 0.0086, z: 0}
        inSlope: {x: 0, y: 0, z: 0}
        outSlope: {x: 0, y: 0, z: 0}
        tangentMode: 0
        weightedMode: 0
        inWeight: {x: 0.33333334, y: 0.33333334, z: 0.33333334}
        outWeight: {x: 0.33333334, y: 0.33333334, z: 0.33333334}
      - serializedVersion: 3
        time: 0.16666667
        value: {x: 0, y: 0.0027, z: 0}
        inSlope: {x: 0, y: 0, z: 0}
        outSlope: {x: 0, y: 0, z: 0}
        tangentMode: 0
        weightedMode: 0
        inWeight: {x: 0.33333334, y: 0.33333334, z: 0.33333334}
        outWeight: {x: 0.33333334, y: 0.33333334, z: 0.33333334}
      m_PreInfinity: 2
      m_PostInfinity: 2
      m_RotationOrder: 4
    path: GameObject
  m_ScaleCurves: []
  m_FloatCurves: []
  m_PPtrCurves:
  - curve:
    - time: 0
      value: {fileID: -8377611058825198184, guid: 9e077eb89787d4369b52e3db80e9cd88,
        type: 3}
    - time: 0.083333336
      value: {fileID: -1823195397117456485, guid: 9e077eb89787d4369b52e3db80e9cd88,
        type: 3}
    - time: 0.16666667
      value: {fileID: -6064416458442301249, guid: 9e077eb89787d4369b52e3db80e9cd88,
        type: 3}
    - time: 0.25
      value: {fileID: -155290051556539395, guid: 9e077eb89787d4369b52e3db80e9cd88,
        type: 3}
    - time: 0.33333334
      value: {fileID: -679224545614949575, guid: 9e077eb89787d4369b52e3db80e9cd88,
        type: 3}
    attribute: m_Sprite
    path: 
    classID: 212
    script: {fileID: 0}
  - curve:
    - time: 0
      value: {fileID: -8377611058825198184, guid: 9e077eb89787d4369b52e3db80e9cd88,
        type: 3}
    - time: 0.083333336
      value: {fileID: -1823195397117456485, guid: 9e077eb89787d4369b52e3db80e9cd88,
        type: 3}
    - time: 0.16666667
      value: {fileID: -6064416458442301249, guid: 9e077eb89787d4369b52e3db80e9cd88,
        type: 3}
    - time: 0.25
      value: {fileID: -155290051556539395, guid: 9e077eb89787d4369b52e3db80e9cd88,
        type: 3}
    - time: 0.33333334
      value: {fileID: -679224545614949575, guid: 9e077eb89787d4369b52e3db80e9cd88,
        type: 3}
    attribute: m_LightCookieSprite
    path: 
    classID: 114
    script: {fileID: 11500000, guid: 073797afb82c5a1438f328866b10b3f0, type: 3}
  m_SampleRate: 12
  m_WrapMode: 0
  m_Bounds:
    m_Center: {x: 0, y: 0, z: 0}
    m_Extent: {x: 0, y: 0, z: 0}
  m_ClipBindingConstant:
    genericBindings:
    - serializedVersion: 2
      path: 1482111001
      attribute: 1
      script: {fileID: 0}
      typeID: 4
      customType: 0
      isPPtrCurve: 0
    - serializedVersion: 2
      path: 0
      attribute: 0
      script: {fileID: 0}
      typeID: 212
      customType: 23
      isPPtrCurve: 1
    - serializedVersion: 2
      path: 0
      attribute: 993967319
      script: {fileID: 11500000, guid: 073797afb82c5a1438f328866b10b3f0, type: 3}
      typeID: 114
      customType: 0
      isPPtrCurve: 1
    pptrCurveMapping:
    - {fileID: -8377611058825198184, guid: 9e077eb89787d4369b52e3db80e9cd88, type: 3}
    - {fileID: -1823195397117456485, guid: 9e077eb89787d4369b52e3db80e9cd88, type: 3}
    - {fileID: -6064416458442301249, guid: 9e077eb89787d4369b52e3db80e9cd88, type: 3}
    - {fileID: -155290051556539395, guid: 9e077eb89787d4369b52e3db80e9cd88, type: 3}
    - {fileID: -679224545614949575, guid: 9e077eb89787d4369b52e3db80e9cd88, type: 3}
    - {fileID: -8377611058825198184, guid: 9e077eb89787d4369b52e3db80e9cd88, type: 3}
    - {fileID: -1823195397117456485, guid: 9e077eb89787d4369b52e3db80e9cd88, type: 3}
    - {fileID: -6064416458442301249, guid: 9e077eb89787d4369b52e3db80e9cd88, type: 3}
    - {fileID: -155290051556539395, guid: 9e077eb89787d4369b52e3db80e9cd88, type: 3}
    - {fileID: -679224545614949575, guid: 9e077eb89787d4369b52e3db80e9cd88, type: 3}
  m_AnimationClipSettings:
    serializedVersion: 2
    m_AdditiveReferencePoseClip: {fileID: 0}
    m_AdditiveReferencePoseTime: 0
    m_StartTime: 0
    m_StopTime: 0.4166667
    m_OrientationOffsetY: 0
    m_Level: 0
    m_CycleOffset: 0
    m_HasAdditiveReferencePose: 0
    m_LoopTime: 1
    m_LoopBlend: 0
    m_LoopBlendOrientation: 0
    m_LoopBlendPositionY: 0
    m_LoopBlendPositionXZ: 0
    m_KeepOriginalOrientation: 0
    m_KeepOriginalPositionY: 1
    m_KeepOriginalPositionXZ: 0
    m_HeightFromFeet: 0
    m_Mirror: 0
  m_EditorCurves:
  - curve:
      serializedVersion: 2
      m_Curve:
      - serializedVersion: 3
        time: 0
        value: 0
        inSlope: 0
        outSlope: 0
        tangentMode: 136
        weightedMode: 0
        inWeight: 0.33333334
        outWeight: 0.33333334
      - serializedVersion: 3
        time: 0.16666667
        value: 0
        inSlope: 0
        outSlope: 0
        tangentMode: 136
        weightedMode: 0
        inWeight: 0.33333334
        outWeight: 0.33333334
      m_PreInfinity: 2
      m_PostInfinity: 2
      m_RotationOrder: 4
    attribute: m_LocalPosition.x
    path: GameObject
    classID: 4
    script: {fileID: 0}
  - curve:
      serializedVersion: 2
      m_Curve:
      - serializedVersion: 3
        time: 0
        value: 0.0086
        inSlope: 0
        outSlope: 0
        tangentMode: 136
        weightedMode: 0
        inWeight: 0.33333334
        outWeight: 0.33333334
      - serializedVersion: 3
        time: 0.16666667
        value: 0.0027
        inSlope: 0
        outSlope: 0
        tangentMode: 136
        weightedMode: 0
        inWeight: 0.33333334
        outWeight: 0.33333334
      m_PreInfinity: 2
      m_PostInfinity: 2
      m_RotationOrder: 4
    attribute: m_LocalPosition.y
    path: GameObject
    classID: 4
    script: {fileID: 0}
  - curve:
      serializedVersion: 2
      m_Curve:
      - serializedVersion: 3
        time: 0
        value: 0
        inSlope: 0
        outSlope: 0
        tangentMode: 136
        weightedMode: 0
        inWeight: 0.33333334
        outWeight: 0.33333334
      - serializedVersion: 3
        time: 0.16666667
        value: 0
        inSlope: 0
        outSlope: 0
        tangentMode: 136
        weightedMode: 0
        inWeight: 0.33333334
        outWeight: 0.33333334
      m_PreInfinity: 2
      m_PostInfinity: 2
      m_RotationOrder: 4
    attribute: m_LocalPosition.z
    path: GameObject
    classID: 4
    script: {fileID: 0}
  m_EulerEditorCurves: []
  m_HasGenericRootTransform: 0
  m_HasMotionFloatCurves: 0
  m_Events: []
