%YAML 1.1
%TAG !u! tag:unity3d.com,2011:
--- !u!74 &7400000
AnimationClip:
  m_ObjectHideFlags: 0
  m_CorrespondingSourceObject: {fileID: 0}
  m_PrefabInstance: {fileID: 0}
  m_PrefabAsset: {fileID: 0}
  m_Name: shrineHover
  serializedVersion: 6
  m_Legacy: 0
  m_Compressed: 0
  m_UseHighQualityCurve: 1
  m_RotationCurves: []
  m_CompressedRotationCurves: []
  m_EulerCurves: []
  m_PositionCurves: []
  m_ScaleCurves: []
  m_FloatCurves: []
  m_PPtrCurves:
  - curve:
    - time: 0
      value: {fileID: 2873206710539379179, guid: dd7e17967c8404717a0223d36d9d70b9,
        type: 3}
    - time: 0.083333336
      value: {fileID: 73963055525510361, guid: dd7e17967c8404717a0223d36d9d70b9, type: 3}
    - time: 0.16666667
      value: {fileID: -5609258397992184532, guid: dd7e17967c8404717a0223d36d9d70b9,
        type: 3}
    - time: 0.25
      value: {fileID: 3935451366259167249, guid: dd7e17967c8404717a0223d36d9d70b9,
        type: 3}
    - time: 0.33333334
      value: {fileID: 8344341311518034552, guid: dd7e17967c8404717a0223d36d9d70b9,
        type: 3}
    - time: 0.41666666
      value: {fileID: -2920047493580517677, guid: dd7e17967c8404717a0223d36d9d70b9,
        type: 3}
    - time: 0.5
      value: {fileID: 763895875422972959, guid: dd7e17967c8404717a0223d36d9d70b9,
        type: 3}
    - time: 0.5833333
      value: {fileID: -1481006563644804567, guid: dd7e17967c8404717a0223d36d9d70b9,
        type: 3}
    - time: 0.6666667
      value: {fileID: -1285452702484593464, guid: dd7e17967c8404717a0223d36d9d70b9,
        type: 3}
    - time: 0.75
      value: {fileID: 7833999659402517607, guid: dd7e17967c8404717a0223d36d9d70b9,
        type: 3}
    - time: 0.8333333
      value: {fileID: 6003273441115613692, guid: dd7e17967c8404717a0223d36d9d70b9,
        type: 3}
    - time: 0.9166667
      value: {fileID: -5313864170863676418, guid: dd7e17967c8404717a0223d36d9d70b9,
        type: 3}
    - time: 1
      value: {fileID: 3628245964471485233, guid: dd7e17967c8404717a0223d36d9d70b9,
        type: 3}
    - time: 1.0833334
      value: {fileID: 6977216705053414932, guid: dd7e17967c8404717a0223d36d9d70b9,
        type: 3}
    - time: 1.1666666
      value: {fileID: 3202426164092952827, guid: dd7e17967c8404717a0223d36d9d70b9,
        type: 3}
    - time: 1.25
      value: {fileID: -3535503152952969256, guid: dd7e17967c8404717a0223d36d9d70b9,
        type: 3}
    - time: 1.3333334
      value: {fileID: -4153880806143816000, guid: dd7e17967c8404717a0223d36d9d70b9,
        type: 3}
    attribute: m_Sprite
    path: 
    classID: 212
    script: {fileID: 0}
  m_SampleRate: 12
  m_WrapMode: 0
  m_Bounds:
    m_Center: {x: 0, y: 0, z: 0}
    m_Extent: {x: 0, y: 0, z: 0}
  m_ClipBindingConstant:
    genericBindings:
    - serializedVersion: 2
      path: 0
      attribute: 0
      script: {fileID: 0}
      typeID: 212
      customType: 23
      isPPtrCurve: 1
    pptrCurveMapping:
    - {fileID: 2873206710539379179, guid: dd7e17967c8404717a0223d36d9d70b9, type: 3}
    - {fileID: 73963055525510361, guid: dd7e17967c8404717a0223d36d9d70b9, type: 3}
    - {fileID: -5609258397992184532, guid: dd7e17967c8404717a0223d36d9d70b9, type: 3}
    - {fileID: 3935451366259167249, guid: dd7e17967c8404717a0223d36d9d70b9, type: 3}
    - {fileID: 8344341311518034552, guid: dd7e17967c8404717a0223d36d9d70b9, type: 3}
    - {fileID: -2920047493580517677, guid: dd7e17967c8404717a0223d36d9d70b9, type: 3}
    - {fileID: 763895875422972959, guid: dd7e17967c8404717a0223d36d9d70b9, type: 3}
    - {fileID: -1481006563644804567, guid: dd7e17967c8404717a0223d36d9d70b9, type: 3}
    - {fileID: -1285452702484593464, guid: dd7e17967c8404717a0223d36d9d70b9, type: 3}
    - {fileID: 7833999659402517607, guid: dd7e17967c8404717a0223d36d9d70b9, type: 3}
    - {fileID: 6003273441115613692, guid: dd7e17967c8404717a0223d36d9d70b9, type: 3}
    - {fileID: -5313864170863676418, guid: dd7e17967c8404717a0223d36d9d70b9, type: 3}
    - {fileID: 3628245964471485233, guid: dd7e17967c8404717a0223d36d9d70b9, type: 3}
    - {fileID: 6977216705053414932, guid: dd7e17967c8404717a0223d36d9d70b9, type: 3}
    - {fileID: 3202426164092952827, guid: dd7e17967c8404717a0223d36d9d70b9, type: 3}
    - {fileID: -3535503152952969256, guid: dd7e17967c8404717a0223d36d9d70b9, type: 3}
    - {fileID: -4153880806143816000, guid: dd7e17967c8404717a0223d36d9d70b9, type: 3}
  m_AnimationClipSettings:
    serializedVersion: 2
    m_AdditiveReferencePoseClip: {fileID: 0}
    m_AdditiveReferencePoseTime: 0
    m_StartTime: 0
    m_StopTime: 1.4166667
    m_OrientationOffsetY: 0
    m_Level: 0
    m_CycleOffset: 0
    m_HasAdditiveReferencePose: 0
    m_LoopTime: 1
    m_LoopBlend: 0
    m_LoopBlendOrientation: 0
    m_LoopBlendPositionY: 0
    m_LoopBlendPositionXZ: 0
    m_KeepOriginalOrientation: 0
    m_KeepOriginalPositionY: 1
    m_KeepOriginalPositionXZ: 0
    m_HeightFromFeet: 0
    m_Mirror: 0
  m_EditorCurves: []
  m_EulerEditorCurves: []
  m_HasGenericRootTransform: 0
  m_HasMotionFloatCurves: 0
  m_Events: []
